EESchema Schematic File Version 4
EELAYER 30 0
EELAYER END
$Descr A4 11693 8268
encoding utf-8
Sheet 1 1
Title ""
Date ""
Rev ""
Comp ""
Comment1 ""
Comment2 ""
Comment3 ""
Comment4 ""
$EndDescr
$Comp
L power:+3.3V #PWR?
U 1 1 5F1FD5CA
P 3600 3900
F 0 "#PWR?" H 3600 3750 50  0001 C CNN
F 1 "+3.3V" H 3615 4073 50  0000 C CNN
F 2 "" H 3600 3900 50  0001 C CNN
F 3 "" H 3600 3900 50  0001 C CNN
	1    3600 3900
	-1   0    0    -1  
$EndComp
$Comp
L power:GND #PWR?
U 1 1 5F1FD5D0
P 3600 6100
F 0 "#PWR?" H 3600 5850 50  0001 C CNN
F 1 "GND" H 3605 5927 50  0000 C CNN
F 2 "" H 3600 6100 50  0001 C CNN
F 3 "" H 3600 6100 50  0001 C CNN
	1    3600 6100
	1    0    0    -1  
$EndComp
$Comp
L power:VDDA #PWR?
U 1 1 5F1FD5D6
P 3800 3900
F 0 "#PWR?" H 3800 3750 50  0001 C CNN
F 1 "VDDA" H 3818 4073 50  0000 C CNN
F 2 "" H 3800 3900 50  0001 C CNN
F 3 "" H 3800 3900 50  0001 C CNN
	1    3800 3900
	-1   0    0    -1  
$EndComp
$Comp
L Audio:UDA1334ATS U?
U 1 1 5F1FD5DC
P 3700 5000
F 0 "U?" H 3350 5650 50  0000 C CNN
F 1 "UDA1334ATS" H 4100 5650 50  0000 C CNN
F 2 "Package_SO:SSOP-16_4.4x5.2mm_P0.65mm" H 3700 5000 50  0001 C CNN
F 3 "http://www.nxp.com/docs/en/data-sheet/UDA1334ATS.pdf" H 3700 5000 50  0001 C CNN
	1    3700 5000
	1    0    0    -1  
$EndComp
$Comp
L power:VSSA #PWR?
U 1 1 5F1FD5E2
P 3800 6100
F 0 "#PWR?" H 3800 5950 50  0001 C CNN
F 1 "VSSA" H 3818 6273 50  0000 C CNN
F 2 "" H 3800 6100 50  0001 C CNN
F 3 "" H 3800 6100 50  0001 C CNN
	1    3800 6100
	-1   0    0    1   
$EndComp
Wire Wire Line
	3600 4100 3600 4300
Wire Wire Line
	3600 4300 3700 4300
Wire Wire Line
	3800 4300 3800 4100
Wire Wire Line
	3800 4100 3800 3900
Connection ~ 3800 4100
Wire Wire Line
	3600 3900 3600 4100
Connection ~ 3600 4100
$Comp
L Device:Ferrite_Bead_Small FB?
U 1 1 5F1FD5EF
P 3700 5900
F 0 "FB?" V 3550 5900 50  0000 C CNN
F 1 "Ferrite_Bead_Small" V 3850 5900 50  0000 C CNN
F 2 "" V 3630 5900 50  0001 C CNN
F 3 "~" H 3700 5900 50  0001 C CNN
	1    3700 5900
	0    1    1    0   
$EndComp
$Comp
L Device:Ferrite_Bead_Small FB?
U 1 1 5F1FD5F5
P 3700 4100
F 0 "FB?" V 3550 4100 50  0000 C CNN
F 1 "Ferrite_Bead_Small" V 3850 4100 50  0000 C CNN
F 2 "" V 3630 4100 50  0001 C CNN
F 3 "~" H 3700 4100 50  0001 C CNN
	1    3700 4100
	0    1    1    0   
$EndComp
Wire Wire Line
	3700 5700 3600 5700
Wire Wire Line
	3600 5700 3600 5900
Wire Wire Line
	3800 5700 3800 5900
Wire Wire Line
	3600 5900 3600 6100
Connection ~ 3600 5900
Wire Wire Line
	3800 5900 3800 6100
Connection ~ 3800 5900
Text HLabel 3200 4500 0    50   Input ~ 0
BCK
Text HLabel 3200 4600 0    50   Input ~ 0
WS
Text HLabel 3200 4700 0    50   Input ~ 0
SD
$Comp
L Device:R_Pack04 RN?
U 1 1 5F1FD605
P 2900 5900
F 0 "RN?" H 3088 5946 50  0000 L CNN
F 1 "10k" H 3088 5855 50  0000 L CNN
F 2 "Resistor_SMD:R_Array_Concave_4x0402" V 3175 5900 50  0001 C CNN
F 3 "~" H 2900 5900 50  0001 C CNN
	1    2900 5900
	1    0    0    -1  
$EndComp
$Comp
L Device:R_Pack04 RN?
U 1 1 5F1FD60B
P 2300 5900
F 0 "RN?" H 2488 5946 50  0000 L CNN
F 1 "10k" H 2488 5855 50  0000 L CNN
F 2 "Resistor_SMD:R_Array_Concave_4x0603" V 2575 5900 50  0001 C CNN
F 3 "~" H 2300 5900 50  0001 C CNN
	1    2300 5900
	1    0    0    -1  
$EndComp
$Comp
L power:GND #PWR?
U 1 1 5F1FD611
P 2700 6100
F 0 "#PWR?" H 2700 5850 50  0001 C CNN
F 1 "GND" H 2705 5927 50  0000 C CNN
F 2 "" H 2700 6100 50  0001 C CNN
F 3 "" H 2700 6100 50  0001 C CNN
	1    2700 6100
	1    0    0    -1  
$EndComp
Wire Wire Line
	3000 6100 2900 6100
Connection ~ 2800 6100
Wire Wire Line
	2800 6100 2700 6100
Connection ~ 2900 6100
Wire Wire Line
	2900 6100 2800 6100
Wire Wire Line
	2100 6100 2200 6100
Connection ~ 2200 6100
Wire Wire Line
	2200 6100 2300 6100
Connection ~ 2300 6100
Wire Wire Line
	2300 6100 2400 6100
$Comp
L power:GND #PWR?
U 1 1 5F1FD621
P 2400 6100
F 0 "#PWR?" H 2400 5850 50  0001 C CNN
F 1 "GND" H 2405 5927 50  0000 C CNN
F 2 "" H 2400 6100 50  0001 C CNN
F 3 "" H 2400 6100 50  0001 C CNN
	1    2400 6100
	1    0    0    -1  
$EndComp
Wire Wire Line
	3200 5000 2100 5000
Wire Wire Line
	2100 5000 2100 5700
Wire Wire Line
	3200 5400 2200 5400
Wire Wire Line
	2200 5400 2200 5700
Wire Wire Line
	3200 5200 2300 5200
Wire Wire Line
	2300 5200 2300 5700
Wire Wire Line
	3200 5100 2800 5100
Wire Wire Line
	2800 5100 2800 5700
Wire Wire Line
	3200 4900 2900 4900
Wire Wire Line
	2900 4900 2900 5700
Wire Wire Line
	3200 5300 3000 5300
Wire Wire Line
	3000 5300 3000 5700
$Comp
L Device:C_Small C?
U 1 1 5F1FD633
P 4300 5500
F 0 "C?" H 4392 5546 50  0000 L CNN
F 1 "100n" H 4392 5455 50  0000 L CNN
F 2 "Capacitor_SMD:C_0402_1005Metric" H 4300 5500 50  0001 C CNN
F 3 "~" H 4300 5500 50  0001 C CNN
	1    4300 5500
	1    0    0    -1  
$EndComp
$Comp
L Device:C_Small C?
U 1 1 5F1FD639
P 4700 5500
F 0 "C?" H 4792 5546 50  0000 L CNN
F 1 "10u" H 4792 5455 50  0000 L CNN
F 2 "Capacitor_SMD:C_0603_1608Metric" H 4700 5500 50  0001 C CNN
F 3 "~" H 4700 5500 50  0001 C CNN
	1    4700 5500
	1    0    0    -1  
$EndComp
$Comp
L power:VSSA #PWR?
U 1 1 5F1FD63F
P 4700 5600
F 0 "#PWR?" H 4700 5450 50  0001 C CNN
F 1 "VSSA" H 4718 5773 50  0000 C CNN
F 2 "" H 4700 5600 50  0001 C CNN
F 3 "" H 4700 5600 50  0001 C CNN
	1    4700 5600
	-1   0    0    1   
$EndComp
Wire Wire Line
	4200 5300 4300 5300
Wire Wire Line
	4300 5300 4300 5400
Wire Wire Line
	4300 5300 4700 5300
Wire Wire Line
	4700 5300 4700 5400
Connection ~ 4300 5300
$Comp
L power:VSSA #PWR?
U 1 1 5F1FD64A
P 4300 5600
F 0 "#PWR?" H 4300 5450 50  0001 C CNN
F 1 "VSSA" H 4318 5773 50  0000 C CNN
F 2 "" H 4300 5600 50  0001 C CNN
F 3 "" H 4300 5600 50  0001 C CNN
	1    4300 5600
	-1   0    0    1   
$EndComp
$Comp
L Device:CP_Small C?
U 1 1 5F1FD650
P 4900 4500
F 0 "C?" V 5125 4500 50  0000 C CNN
F 1 "47u" V 5034 4500 50  0000 C CNN
F 2 "" H 4900 4500 50  0001 C CNN
F 3 "~" H 4900 4500 50  0001 C CNN
	1    4900 4500
	0    -1   -1   0   
$EndComp
$Comp
L Device:CP_Small C?
U 1 1 5F1FD656
P 4900 5000
F 0 "C?" V 5125 5000 50  0000 C CNN
F 1 "47u" V 5034 5000 50  0000 C CNN
F 2 "" H 4900 5000 50  0001 C CNN
F 3 "~" H 4900 5000 50  0001 C CNN
	1    4900 5000
	0    -1   -1   0   
$EndComp
Connection ~ 2700 6100
Connection ~ 2400 6100
$Comp
L Device:C_Small C?
U 1 1 5F1FD65E
P 5500 5100
F 0 "C?" H 5592 5146 50  0000 L CNN
F 1 "10n" H 5592 5055 50  0000 L CNN
F 2 "Capacitor_SMD:C_0402_1005Metric" H 5500 5100 50  0001 C CNN
F 3 "~" H 5500 5100 50  0001 C CNN
	1    5500 5100
	1    0    0    -1  
$EndComp
$Comp
L Device:R_Small R?
U 1 1 5F1FD664
P 5300 5000
F 0 "R?" V 5104 5000 50  0000 C CNN
F 1 "100" V 5195 5000 50  0000 C CNN
F 2 "Resistor_SMD:R_0402_1005Metric" H 5300 5000 50  0001 C CNN
F 3 "~" H 5300 5000 50  0001 C CNN
	1    5300 5000
	0    1    1    0   
$EndComp
$Comp
L Device:R_Small R?
U 1 1 5F1FD66A
P 5100 5100
F 0 "R?" H 5159 5146 50  0000 L CNN
F 1 "220k" H 5159 5055 50  0000 L CNN
F 2 "Resistor_SMD:R_0402_1005Metric" H 5100 5100 50  0001 C CNN
F 3 "~" H 5100 5100 50  0001 C CNN
	1    5100 5100
	1    0    0    -1  
$EndComp
$Comp
L power:VSSA #PWR?
U 1 1 5F1FD670
P 5100 5200
F 0 "#PWR?" H 5100 5050 50  0001 C CNN
F 1 "VSSA" H 5118 5373 50  0000 C CNN
F 2 "" H 5100 5200 50  0001 C CNN
F 3 "" H 5100 5200 50  0001 C CNN
	1    5100 5200
	-1   0    0    1   
$EndComp
Wire Wire Line
	5400 5000 5500 5000
$Comp
L power:VSSA #PWR?
U 1 1 5F1FD677
P 5500 5200
F 0 "#PWR?" H 5500 5050 50  0001 C CNN
F 1 "VSSA" H 5518 5373 50  0000 C CNN
F 2 "" H 5500 5200 50  0001 C CNN
F 3 "" H 5500 5200 50  0001 C CNN
	1    5500 5200
	-1   0    0    1   
$EndComp
Wire Wire Line
	4200 4700 4300 4700
Wire Wire Line
	4300 4700 4300 4500
Wire Wire Line
	4300 4500 4800 4500
Wire Wire Line
	4200 4800 4300 4800
Wire Wire Line
	4300 4800 4300 5000
Wire Wire Line
	4300 5000 4800 5000
Wire Wire Line
	5000 5000 5100 5000
Connection ~ 5100 5000
Wire Wire Line
	5100 5000 5200 5000
$Comp
L Device:C_Small C?
U 1 1 5F1FD686
P 5500 4600
F 0 "C?" H 5592 4646 50  0000 L CNN
F 1 "10n" H 5592 4555 50  0000 L CNN
F 2 "Capacitor_SMD:C_0402_1005Metric" H 5500 4600 50  0001 C CNN
F 3 "~" H 5500 4600 50  0001 C CNN
	1    5500 4600
	1    0    0    -1  
$EndComp
$Comp
L Device:R_Small R?
U 1 1 5F1FD68C
P 5300 4500
F 0 "R?" V 5104 4500 50  0000 C CNN
F 1 "100" V 5195 4500 50  0000 C CNN
F 2 "Resistor_SMD:R_0402_1005Metric" H 5300 4500 50  0001 C CNN
F 3 "~" H 5300 4500 50  0001 C CNN
	1    5300 4500
	0    1    1    0   
$EndComp
$Comp
L Device:R_Small R?
U 1 1 5F1FD692
P 5100 4600
F 0 "R?" H 5159 4646 50  0000 L CNN
F 1 "220k" H 5159 4555 50  0000 L CNN
F 2 "Resistor_SMD:R_0402_1005Metric" H 5100 4600 50  0001 C CNN
F 3 "~" H 5100 4600 50  0001 C CNN
	1    5100 4600
	1    0    0    -1  
$EndComp
$Comp
L power:VSSA #PWR?
U 1 1 5F1FD698
P 5100 4700
F 0 "#PWR?" H 5100 4550 50  0001 C CNN
F 1 "VSSA" H 5118 4873 50  0000 C CNN
F 2 "" H 5100 4700 50  0001 C CNN
F 3 "" H 5100 4700 50  0001 C CNN
	1    5100 4700
	-1   0    0    1   
$EndComp
Wire Wire Line
	5400 4500 5500 4500
$Comp
L power:VSSA #PWR?
U 1 1 5F1FD69F
P 5500 4700
F 0 "#PWR?" H 5500 4550 50  0001 C CNN
F 1 "VSSA" H 5518 4873 50  0000 C CNN
F 2 "" H 5500 4700 50  0001 C CNN
F 3 "" H 5500 4700 50  0001 C CNN
	1    5500 4700
	-1   0    0    1   
$EndComp
Wire Wire Line
	5000 4500 5100 4500
Connection ~ 5100 4500
Wire Wire Line
	5100 4500 5200 4500
$Comp
L power:GND #PWR?
U 1 1 5F1FD6A8
P 2700 4100
F 0 "#PWR?" H 2700 3850 50  0001 C CNN
F 1 "GND" H 2705 3927 50  0000 C CNN
F 2 "" H 2700 4100 50  0001 C CNN
F 3 "" H 2700 4100 50  0001 C CNN
	1    2700 4100
	1    0    0    -1  
$EndComp
$Comp
L power:GND #PWR?
U 1 1 5F1FD6AE
P 3100 4100
F 0 "#PWR?" H 3100 3850 50  0001 C CNN
F 1 "GND" H 3105 3927 50  0000 C CNN
F 2 "" H 3100 4100 50  0001 C CNN
F 3 "" H 3100 4100 50  0001 C CNN
	1    3100 4100
	1    0    0    -1  
$EndComp
$Comp
L power:+3.3V #PWR?
U 1 1 5F1FD6B4
P 2700 3900
F 0 "#PWR?" H 2700 3750 50  0001 C CNN
F 1 "+3.3V" H 2715 4073 50  0000 C CNN
F 2 "" H 2700 3900 50  0001 C CNN
F 3 "" H 2700 3900 50  0001 C CNN
	1    2700 3900
	-1   0    0    -1  
$EndComp
$Comp
L power:+3.3V #PWR?
U 1 1 5F1FD6BA
P 3100 3900
F 0 "#PWR?" H 3100 3750 50  0001 C CNN
F 1 "+3.3V" H 3115 4073 50  0000 C CNN
F 2 "" H 3100 3900 50  0001 C CNN
F 3 "" H 3100 3900 50  0001 C CNN
	1    3100 3900
	-1   0    0    -1  
$EndComp
$Comp
L Device:C_Small C?
U 1 1 5F1FD6C0
P 2700 4000
F 0 "C?" H 2792 4046 50  0000 L CNN
F 1 "10u" H 2792 3955 50  0000 L CNN
F 2 "Capacitor_SMD:C_0603_1608Metric" H 2700 4000 50  0001 C CNN
F 3 "~" H 2700 4000 50  0001 C CNN
	1    2700 4000
	1    0    0    -1  
$EndComp
$Comp
L Device:C_Small C?
U 1 1 5F1FD6C6
P 3100 4000
F 0 "C?" H 3192 4046 50  0000 L CNN
F 1 "100n" H 3192 3955 50  0000 L CNN
F 2 "Capacitor_SMD:C_0402_1005Metric" H 3100 4000 50  0001 C CNN
F 3 "~" H 3100 4000 50  0001 C CNN
	1    3100 4000
	1    0    0    -1  
$EndComp
$Comp
L power:VSSA #PWR?
U 1 1 5F1FD6CC
P 4700 4100
F 0 "#PWR?" H 4700 3950 50  0001 C CNN
F 1 "VSSA" H 4718 4273 50  0000 C CNN
F 2 "" H 4700 4100 50  0001 C CNN
F 3 "" H 4700 4100 50  0001 C CNN
	1    4700 4100
	-1   0    0    1   
$EndComp
$Comp
L power:VDDA #PWR?
U 1 1 5F1FD6D2
P 4700 3900
F 0 "#PWR?" H 4700 3750 50  0001 C CNN
F 1 "VDDA" H 4718 4073 50  0000 C CNN
F 2 "" H 4700 3900 50  0001 C CNN
F 3 "" H 4700 3900 50  0001 C CNN
	1    4700 3900
	-1   0    0    -1  
$EndComp
$Comp
L Device:C_Small C?
U 1 1 5F1FD6D8
P 4700 4000
F 0 "C?" H 4792 4046 50  0000 L CNN
F 1 "10u" H 4792 3955 50  0000 L CNN
F 2 "Capacitor_SMD:C_0603_1608Metric" H 4700 4000 50  0001 C CNN
F 3 "~" H 4700 4000 50  0001 C CNN
	1    4700 4000
	1    0    0    -1  
$EndComp
$Comp
L power:VSSA #PWR?
U 1 1 5F1FD6DE
P 4300 4100
F 0 "#PWR?" H 4300 3950 50  0001 C CNN
F 1 "VSSA" H 4318 4273 50  0000 C CNN
F 2 "" H 4300 4100 50  0001 C CNN
F 3 "" H 4300 4100 50  0001 C CNN
	1    4300 4100
	-1   0    0    1   
$EndComp
$Comp
L power:VDDA #PWR?
U 1 1 5F1FD6E4
P 4300 3900
F 0 "#PWR?" H 4300 3750 50  0001 C CNN
F 1 "VDDA" H 4318 4073 50  0000 C CNN
F 2 "" H 4300 3900 50  0001 C CNN
F 3 "" H 4300 3900 50  0001 C CNN
	1    4300 3900
	-1   0    0    -1  
$EndComp
$Comp
L Device:C_Small C?
U 1 1 5F1FD6EA
P 4300 4000
F 0 "C?" H 4392 4046 50  0000 L CNN
F 1 "100n" H 4392 3955 50  0000 L CNN
F 2 "Capacitor_SMD:C_0402_1005Metric" H 4300 4000 50  0001 C CNN
F 3 "~" H 4300 4000 50  0001 C CNN
	1    4300 4000
	1    0    0    -1  
$EndComp
Text HLabel 2000 5200 0    50   Input ~ 0
MUTE
Wire Wire Line
	2300 5200 2000 5200
Connection ~ 2300 5200
$Comp
L Device:C_Small C?
U 1 1 5F1FD6F3
P 6100 4500
F 0 "C?" V 5871 4500 50  0000 C CNN
F 1 "1u" V 5962 4500 50  0000 C CNN
F 2 "" H 6100 4500 50  0001 C CNN
F 3 "~" H 6100 4500 50  0001 C CNN
	1    6100 4500
	0    1    1    0   
$EndComp
Wire Wire Line
	6000 4500 5500 4500
Connection ~ 5500 4500
Text Label 5600 4500 0    50   ~ 0
DAC_OUTL
Text Label 5600 5000 0    50   ~ 0
DAC_OUTR
$Comp
L Device:C_Small C?
U 1 1 5F1FD6FD
P 6100 5000
F 0 "C?" V 5871 5000 50  0000 C CNN
F 1 "1u" V 5962 5000 50  0000 C CNN
F 2 "" H 6100 5000 50  0001 C CNN
F 3 "~" H 6100 5000 50  0001 C CNN
	1    6100 5000
	0    1    1    0   
$EndComp
Wire Wire Line
	5500 5000 6000 5000
Connection ~ 5500 5000
Wire Wire Line
	6400 4900 6400 4500
Wire Wire Line
	6400 4500 6200 4500
Wire Wire Line
	6200 5000 6300 5000
Text Label 4400 5000 0    50   ~ 0
DAC_VOUTR
Text Label 4400 4500 0    50   ~ 0
DAC_VOUTL
Wire Wire Line
	6300 5000 6300 4600
Text Label 6500 4900 0    50   ~ 0
AMP_INL
Text Label 8100 4600 0    50   ~ 0
AMP_OUTR
Text Label 8100 4800 0    50   ~ 0
AMP_OUTL
Wire Wire Line
	8600 4500 8600 5000
Wire Wire Line
	8700 4500 8600 4500
$Comp
L power:VSSA #PWR?
U 1 1 5F1FD710
P 8600 5000
F 0 "#PWR?" H 8600 4850 50  0001 C CNN
F 1 "VSSA" H 8618 5173 50  0000 C CNN
F 2 "" H 8600 5000 50  0001 C CNN
F 3 "" H 8600 5000 50  0001 C CNN
	1    8600 5000
	-1   0    0    1   
$EndComp
Wire Wire Line
	8000 4800 8700 4800
Wire Wire Line
	8000 4600 8700 4600
Connection ~ 6900 4800
Wire Wire Line
	6900 4500 7000 4500
Wire Wire Line
	6900 4800 6900 4500
Wire Wire Line
	6900 4800 7000 4800
$Comp
L Amplifier_Audio:TPA6132A2RTE U?
U 1 1 5F1FD71C
P 7500 4900
F 0 "U?" H 7500 5681 50  0000 C CNN
F 1 "TPA6132A2RTE" H 7500 5590 50  0000 C CNN
F 2 "Package_DFN_QFN:WQFN-16-1EP_3x3mm_P0.5mm_EP1.6x1.6mm_ThermalVias" H 7600 4350 50  0001 C CNN
F 3 "https://www.ti.com/lit/ds/symlink/tpa6132a2.pdf" H 7200 5450 50  0001 C CNN
	1    7500 4900
	1    0    0    -1  
$EndComp
Wire Wire Line
	6300 4600 7000 4600
Wire Wire Line
	7000 4900 6400 4900
Wire Wire Line
	8700 4400 8500 4400
$Comp
L Connector:AudioJack4_SwitchTR1 J?
U 1 1 5F1FD75D
P 8900 4600
AR Path="/5F1FD75D" Ref="J?"  Part="1" 
AR Path="/5DF6D601/5F1FD75D" Ref="J?"  Part="1" 
AR Path="/5F1E6D1B/5F1FD75D" Ref="J?"  Part="1" 
F 0 "J?" H 8800 5050 50  0000 C CNN
F 1 "Headset" H 8800 4950 50  0000 C CNN
F 2 "" H 8850 4600 50  0001 C CNN
F 3 "~" H 8850 4600 50  0001 C CNN
	1    8900 4600
	-1   0    0    -1  
$EndComp
Text Label 6500 4600 0    50   ~ 0
AMP_INR
Wire Wire Line
	7600 5500 7600 5800
$Comp
L Device:C_Small C?
U 1 1 5F1FD765
P 7500 5600
F 0 "C?" V 7450 5450 50  0000 L CNN
F 1 "1u" V 7550 5450 50  0000 L CNN
F 2 "" H 7500 5600 50  0001 C CNN
F 3 "~" H 7500 5600 50  0001 C CNN
	1    7500 5600
	1    0    0    -1  
$EndComp
Wire Wire Line
	7400 5500 7400 5800
Wire Wire Line
	7400 5800 7500 5800
Wire Wire Line
	7500 5800 7500 5700
Wire Wire Line
	7500 5800 7600 5800
Connection ~ 7500 5800
Connection ~ 7600 5800
Wire Wire Line
	7600 5800 7600 5900
$Comp
L power:GND #PWR?
U 1 1 5F1FD772
P 7600 5900
F 0 "#PWR?" H 7600 5650 50  0001 C CNN
F 1 "GND" H 7605 5727 50  0000 C CNN
F 2 "" H 7600 5900 50  0001 C CNN
F 3 "" H 7600 5900 50  0001 C CNN
	1    7600 5900
	1    0    0    -1  
$EndComp
Wire Wire Line
	7300 5900 7300 5500
$Comp
L power:VSSA #PWR?
U 1 1 5F1FD779
P 7300 5900
F 0 "#PWR?" H 7300 5750 50  0001 C CNN
F 1 "VSSA" H 7318 6073 50  0000 C CNN
F 2 "" H 7300 5900 50  0001 C CNN
F 3 "" H 7300 5900 50  0001 C CNN
	1    7300 5900
	-1   0    0    1   
$EndComp
Wire Wire Line
	6900 5900 6900 4800
$Comp
L power:GND #PWR?
U 1 1 5F1FD780
P 6900 5900
F 0 "#PWR?" H 6900 5650 50  0001 C CNN
F 1 "GND" H 6905 5727 50  0000 C CNN
F 2 "" H 6900 5900 50  0001 C CNN
F 3 "" H 6900 5900 50  0001 C CNN
	1    6900 5900
	1    0    0    -1  
$EndComp
Text Notes 6600 6200 0    50   ~ 0
TODO:\nGND or VSSA?
$Comp
L Device:Microphone_Condenser MK?
U 1 1 5F1FD7CA
P 8600 5700
AR Path="/5F1E6D1B/5F1FD7CA" Ref="MK?"  Part="1" 
AR Path="/5F1FD7CA" Ref="MK1"  Part="1" 
F 0 "MK1" H 8730 5746 50  0000 L CNN
F 1 "Electret" H 8730 5655 50  0000 L CNN
F 2 "" V 8600 5800 50  0001 C CNN
F 3 "~" V 8600 5800 50  0001 C CNN
	1    8600 5700
	1    0    0    -1  
$EndComp
$Comp
L power:VSSA #PWR?
U 1 1 5F1FD7D0
P 8600 5900
F 0 "#PWR?" H 8600 5750 50  0001 C CNN
F 1 "VSSA" H 8618 6073 50  0000 C CNN
F 2 "" H 8600 5900 50  0001 C CNN
F 3 "" H 8600 5900 50  0001 C CNN
	1    8600 5900
	-1   0    0    1   
$EndComp
NoConn ~ 8700 4700
NoConn ~ 8700 4900
Text Label 3000 5100 0    50   ~ 0
DEEM
Wire Wire Line
	1500 4500 1400 4500
Wire Wire Line
	1500 5100 1500 4500
$Comp
L Connector:AudioJack3_Switch J?
U 1 1 5F1FD841
P 1200 4700
F 0 "J?" H 1182 5125 50  0000 C CNN
F 1 "Aux-In" H 1182 5034 50  0000 C CNN
F 2 "" H 1200 4700 50  0001 C CNN
F 3 "~" H 1200 4700 50  0001 C CNN
	1    1200 4700
	1    0    0    -1  
$EndComp
$Comp
L power:VSSA #PWR?
U 1 1 5F1FD83B
P 1500 5100
F 0 "#PWR?" H 1500 4950 50  0001 C CNN
F 1 "VSSA" H 1518 5273 50  0000 C CNN
F 2 "" H 1500 5100 50  0001 C CNN
F 3 "" H 1500 5100 50  0001 C CNN
	1    1500 5100
	-1   0    0    1   
$EndComp
Text Label 8500 4400 0    50   ~ 0
MIC1
$Comp
L 0xdec:Adafruit_FeatherWing A1
U 1 1 5F238673
P 9500 2200
F 0 "A1" H 9500 3267 50  0000 C CNN
F 1 "Adafruit_FeatherWing" H 9500 3176 50  0000 C CNN
F 2 "0xdec:Adafruit_FeatherWing" H 9100 3250 50  0001 C CNN
F 3 "https://learn.adafruit.com/adafruit-feather" H 9100 3250 50  0001 C CNN
	1    9500 2200
	1    0    0    -1  
$EndComp
Wire Wire Line
	8600 5500 8800 5500
Text Label 8800 5500 2    50   ~ 0
MIC2
$EndSCHEMATC
