EESchema Schematic File Version 4
EELAYER 30 0
EELAYER END
$Descr A4 11693 8268
encoding utf-8
Sheet 4 4
Title ""
Date ""
Rev ""
Comp ""
Comment1 ""
Comment2 ""
Comment3 ""
Comment4 ""
$EndDescr
$Comp
L power:+3.3V #PWR015
U 1 1 5DF747D0
P 2600 4000
F 0 "#PWR015" H 2600 3850 50  0001 C CNN
F 1 "+3.3V" H 2615 4173 50  0000 C CNN
F 2 "" H 2600 4000 50  0001 C CNN
F 3 "" H 2600 4000 50  0001 C CNN
	1    2600 4000
	-1   0    0    -1  
$EndComp
$Comp
L power:GND #PWR016
U 1 1 5DF77BCA
P 2600 6200
F 0 "#PWR016" H 2600 5950 50  0001 C CNN
F 1 "GND" H 2605 6027 50  0000 C CNN
F 2 "" H 2600 6200 50  0001 C CNN
F 3 "" H 2600 6200 50  0001 C CNN
	1    2600 6200
	1    0    0    -1  
$EndComp
$Comp
L power:VDDA #PWR017
U 1 1 5DF76346
P 2800 4000
F 0 "#PWR017" H 2800 3850 50  0001 C CNN
F 1 "VDDA" H 2818 4173 50  0000 C CNN
F 2 "" H 2800 4000 50  0001 C CNN
F 3 "" H 2800 4000 50  0001 C CNN
	1    2800 4000
	-1   0    0    -1  
$EndComp
$Comp
L Audio:UDA1334ATS U5
U 1 1 5DF7197A
P 2700 5100
F 0 "U5" H 2350 5750 50  0000 C CNN
F 1 "UDA1334ATS" H 3100 5750 50  0000 C CNN
F 2 "Package_SO:SSOP-16_4.4x5.2mm_P0.65mm" H 2700 5100 50  0001 C CNN
F 3 "http://www.nxp.com/docs/en/data-sheet/UDA1334ATS.pdf" H 2700 5100 50  0001 C CNN
	1    2700 5100
	1    0    0    -1  
$EndComp
$Comp
L power:VSSA #PWR018
U 1 1 5DF8F96D
P 2800 6200
F 0 "#PWR018" H 2800 6050 50  0001 C CNN
F 1 "VSSA" H 2818 6373 50  0000 C CNN
F 2 "" H 2800 6200 50  0001 C CNN
F 3 "" H 2800 6200 50  0001 C CNN
	1    2800 6200
	-1   0    0    1   
$EndComp
Wire Wire Line
	2600 4200 2600 4400
Wire Wire Line
	2600 4400 2700 4400
Wire Wire Line
	2800 4400 2800 4200
Wire Wire Line
	2800 4200 2800 4000
Connection ~ 2800 4200
Wire Wire Line
	2600 4000 2600 4200
Connection ~ 2600 4200
$Comp
L Device:Ferrite_Bead_Small FB2
U 1 1 5DFBD279
P 2700 6000
F 0 "FB2" V 2550 6000 50  0000 C CNN
F 1 "Ferrite_Bead_Small" V 2850 6000 50  0000 C CNN
F 2 "" V 2630 6000 50  0001 C CNN
F 3 "~" H 2700 6000 50  0001 C CNN
	1    2700 6000
	0    1    1    0   
$EndComp
$Comp
L Device:Ferrite_Bead_Small FB1
U 1 1 5DFB8224
P 2700 4200
F 0 "FB1" V 2550 4200 50  0000 C CNN
F 1 "Ferrite_Bead_Small" V 2850 4200 50  0000 C CNN
F 2 "" V 2630 4200 50  0001 C CNN
F 3 "~" H 2700 4200 50  0001 C CNN
	1    2700 4200
	0    1    1    0   
$EndComp
Wire Wire Line
	2700 5800 2600 5800
Wire Wire Line
	2600 5800 2600 6000
Wire Wire Line
	2800 5800 2800 6000
Wire Wire Line
	2600 6000 2600 6200
Connection ~ 2600 6000
Wire Wire Line
	2800 6000 2800 6200
Connection ~ 2800 6000
Text HLabel 2200 4600 0    50   Input ~ 0
BCK
Text HLabel 2200 4700 0    50   Input ~ 0
WS
Text HLabel 2200 4800 0    50   Input ~ 0
SD
$Comp
L Device:R_Pack04 RN2
U 1 1 5DFDA077
P 1900 6000
F 0 "RN2" H 2088 6046 50  0000 L CNN
F 1 "10k" H 2088 5955 50  0000 L CNN
F 2 "Resistor_SMD:R_Array_Concave_4x0402" V 2175 6000 50  0001 C CNN
F 3 "~" H 1900 6000 50  0001 C CNN
	1    1900 6000
	1    0    0    -1  
$EndComp
$Comp
L Device:R_Pack04 RN1
U 1 1 5DFE2BDC
P 1300 6000
F 0 "RN1" H 1488 6046 50  0000 L CNN
F 1 "10k" H 1488 5955 50  0000 L CNN
F 2 "Resistor_SMD:R_Array_Concave_4x0603" V 1575 6000 50  0001 C CNN
F 3 "~" H 1300 6000 50  0001 C CNN
	1    1300 6000
	1    0    0    -1  
$EndComp
$Comp
L power:GND #PWR012
U 1 1 5DFE56D2
P 1700 6200
F 0 "#PWR012" H 1700 5950 50  0001 C CNN
F 1 "GND" H 1705 6027 50  0000 C CNN
F 2 "" H 1700 6200 50  0001 C CNN
F 3 "" H 1700 6200 50  0001 C CNN
	1    1700 6200
	1    0    0    -1  
$EndComp
Wire Wire Line
	2000 6200 1900 6200
Connection ~ 1800 6200
Wire Wire Line
	1800 6200 1700 6200
Connection ~ 1900 6200
Wire Wire Line
	1900 6200 1800 6200
Wire Wire Line
	1100 6200 1200 6200
Connection ~ 1200 6200
Wire Wire Line
	1200 6200 1300 6200
Connection ~ 1300 6200
Wire Wire Line
	1300 6200 1400 6200
$Comp
L power:GND #PWR09
U 1 1 5DFE6D63
P 1400 6200
F 0 "#PWR09" H 1400 5950 50  0001 C CNN
F 1 "GND" H 1405 6027 50  0000 C CNN
F 2 "" H 1400 6200 50  0001 C CNN
F 3 "" H 1400 6200 50  0001 C CNN
	1    1400 6200
	1    0    0    -1  
$EndComp
Wire Wire Line
	2200 5100 1100 5100
Wire Wire Line
	1100 5100 1100 5800
Wire Wire Line
	2200 5500 1200 5500
Wire Wire Line
	1200 5500 1200 5800
Wire Wire Line
	2200 5300 1300 5300
Wire Wire Line
	1300 5300 1300 5800
Wire Wire Line
	2200 5200 1800 5200
Wire Wire Line
	1800 5200 1800 5800
Wire Wire Line
	2200 5000 1900 5000
Wire Wire Line
	1900 5000 1900 5800
Wire Wire Line
	2200 5400 2000 5400
Wire Wire Line
	2000 5400 2000 5800
$Comp
L Device:C_Small C?
U 1 1 5DFF4380
P 3300 5600
F 0 "C?" H 3392 5646 50  0000 L CNN
F 1 "100n" H 3392 5555 50  0000 L CNN
F 2 "Capacitor_SMD:C_0402_1005Metric" H 3300 5600 50  0001 C CNN
F 3 "~" H 3300 5600 50  0001 C CNN
	1    3300 5600
	1    0    0    -1  
$EndComp
$Comp
L Device:C_Small C?
U 1 1 5DFF438A
P 3700 5600
F 0 "C?" H 3792 5646 50  0000 L CNN
F 1 "10u" H 3792 5555 50  0000 L CNN
F 2 "Capacitor_SMD:C_0603_1608Metric" H 3700 5600 50  0001 C CNN
F 3 "~" H 3700 5600 50  0001 C CNN
	1    3700 5600
	1    0    0    -1  
$EndComp
$Comp
L power:VSSA #PWR0137
U 1 1 5DFF4394
P 3700 5700
F 0 "#PWR0137" H 3700 5550 50  0001 C CNN
F 1 "VSSA" H 3718 5873 50  0000 C CNN
F 2 "" H 3700 5700 50  0001 C CNN
F 3 "" H 3700 5700 50  0001 C CNN
	1    3700 5700
	-1   0    0    1   
$EndComp
Wire Wire Line
	3200 5400 3300 5400
Wire Wire Line
	3300 5400 3300 5500
Wire Wire Line
	3300 5400 3700 5400
Wire Wire Line
	3700 5400 3700 5500
Connection ~ 3300 5400
$Comp
L power:VSSA #PWR0138
U 1 1 5DFFBAFC
P 3300 5700
F 0 "#PWR0138" H 3300 5550 50  0001 C CNN
F 1 "VSSA" H 3318 5873 50  0000 C CNN
F 2 "" H 3300 5700 50  0001 C CNN
F 3 "" H 3300 5700 50  0001 C CNN
	1    3300 5700
	-1   0    0    1   
$EndComp
$Comp
L Device:CP_Small C?
U 1 1 5DFFC691
P 3900 4600
F 0 "C?" V 4125 4600 50  0000 C CNN
F 1 "47u" V 4034 4600 50  0000 C CNN
F 2 "" H 3900 4600 50  0001 C CNN
F 3 "~" H 3900 4600 50  0001 C CNN
	1    3900 4600
	0    -1   -1   0   
$EndComp
$Comp
L Device:CP_Small C?
U 1 1 5DFFCFD3
P 3900 5100
F 0 "C?" V 4125 5100 50  0000 C CNN
F 1 "47u" V 4034 5100 50  0000 C CNN
F 2 "" H 3900 5100 50  0001 C CNN
F 3 "~" H 3900 5100 50  0001 C CNN
	1    3900 5100
	0    -1   -1   0   
$EndComp
Connection ~ 1700 6200
Connection ~ 1400 6200
$Comp
L Device:C_Small C?
U 1 1 5E011837
P 4500 5200
F 0 "C?" H 4592 5246 50  0000 L CNN
F 1 "10n" H 4592 5155 50  0000 L CNN
F 2 "Capacitor_SMD:C_0402_1005Metric" H 4500 5200 50  0001 C CNN
F 3 "~" H 4500 5200 50  0001 C CNN
	1    4500 5200
	1    0    0    -1  
$EndComp
$Comp
L Device:R_Small R?
U 1 1 5E012115
P 4300 5100
F 0 "R?" V 4104 5100 50  0000 C CNN
F 1 "100" V 4195 5100 50  0000 C CNN
F 2 "Resistor_SMD:R_0402_1005Metric" H 4300 5100 50  0001 C CNN
F 3 "~" H 4300 5100 50  0001 C CNN
	1    4300 5100
	0    1    1    0   
$EndComp
$Comp
L Device:R_Small R?
U 1 1 5E012CE1
P 4100 5200
F 0 "R?" H 4159 5246 50  0000 L CNN
F 1 "220k" H 4159 5155 50  0000 L CNN
F 2 "Resistor_SMD:R_0402_1005Metric" H 4100 5200 50  0001 C CNN
F 3 "~" H 4100 5200 50  0001 C CNN
	1    4100 5200
	1    0    0    -1  
$EndComp
$Comp
L power:VSSA #PWR0139
U 1 1 5E0225A7
P 4100 5300
F 0 "#PWR0139" H 4100 5150 50  0001 C CNN
F 1 "VSSA" H 4118 5473 50  0000 C CNN
F 2 "" H 4100 5300 50  0001 C CNN
F 3 "" H 4100 5300 50  0001 C CNN
	1    4100 5300
	-1   0    0    1   
$EndComp
Wire Wire Line
	4400 5100 4500 5100
$Comp
L power:VSSA #PWR0140
U 1 1 5E030C70
P 4500 5300
F 0 "#PWR0140" H 4500 5150 50  0001 C CNN
F 1 "VSSA" H 4518 5473 50  0000 C CNN
F 2 "" H 4500 5300 50  0001 C CNN
F 3 "" H 4500 5300 50  0001 C CNN
	1    4500 5300
	-1   0    0    1   
$EndComp
Wire Wire Line
	3200 4800 3300 4800
Wire Wire Line
	3300 4800 3300 4600
Wire Wire Line
	3300 4600 3800 4600
Wire Wire Line
	3200 4900 3300 4900
Wire Wire Line
	3300 4900 3300 5100
Wire Wire Line
	3300 5100 3800 5100
Wire Wire Line
	4000 5100 4100 5100
Connection ~ 4100 5100
Wire Wire Line
	4100 5100 4200 5100
$Comp
L Device:C_Small C?
U 1 1 5E04BD31
P 4500 4700
F 0 "C?" H 4592 4746 50  0000 L CNN
F 1 "10n" H 4592 4655 50  0000 L CNN
F 2 "Capacitor_SMD:C_0402_1005Metric" H 4500 4700 50  0001 C CNN
F 3 "~" H 4500 4700 50  0001 C CNN
	1    4500 4700
	1    0    0    -1  
$EndComp
$Comp
L Device:R_Small R?
U 1 1 5E04BD3B
P 4300 4600
F 0 "R?" V 4104 4600 50  0000 C CNN
F 1 "100" V 4195 4600 50  0000 C CNN
F 2 "Resistor_SMD:R_0402_1005Metric" H 4300 4600 50  0001 C CNN
F 3 "~" H 4300 4600 50  0001 C CNN
	1    4300 4600
	0    1    1    0   
$EndComp
$Comp
L Device:R_Small R?
U 1 1 5E04BD45
P 4100 4700
F 0 "R?" H 4159 4746 50  0000 L CNN
F 1 "220k" H 4159 4655 50  0000 L CNN
F 2 "Resistor_SMD:R_0402_1005Metric" H 4100 4700 50  0001 C CNN
F 3 "~" H 4100 4700 50  0001 C CNN
	1    4100 4700
	1    0    0    -1  
$EndComp
$Comp
L power:VSSA #PWR0141
U 1 1 5E04BD4F
P 4100 4800
F 0 "#PWR0141" H 4100 4650 50  0001 C CNN
F 1 "VSSA" H 4118 4973 50  0000 C CNN
F 2 "" H 4100 4800 50  0001 C CNN
F 3 "" H 4100 4800 50  0001 C CNN
	1    4100 4800
	-1   0    0    1   
$EndComp
Wire Wire Line
	4400 4600 4500 4600
$Comp
L power:VSSA #PWR0142
U 1 1 5E04BD5A
P 4500 4800
F 0 "#PWR0142" H 4500 4650 50  0001 C CNN
F 1 "VSSA" H 4518 4973 50  0000 C CNN
F 2 "" H 4500 4800 50  0001 C CNN
F 3 "" H 4500 4800 50  0001 C CNN
	1    4500 4800
	-1   0    0    1   
$EndComp
Wire Wire Line
	4000 4600 4100 4600
Connection ~ 4100 4600
Wire Wire Line
	4100 4600 4200 4600
$Comp
L power:GND #PWR011
U 1 1 5DF97C77
P 1700 4200
F 0 "#PWR011" H 1700 3950 50  0001 C CNN
F 1 "GND" H 1705 4027 50  0000 C CNN
F 2 "" H 1700 4200 50  0001 C CNN
F 3 "" H 1700 4200 50  0001 C CNN
	1    1700 4200
	1    0    0    -1  
$EndComp
$Comp
L power:GND #PWR014
U 1 1 5DF9767C
P 2100 4200
F 0 "#PWR014" H 2100 3950 50  0001 C CNN
F 1 "GND" H 2105 4027 50  0000 C CNN
F 2 "" H 2100 4200 50  0001 C CNN
F 3 "" H 2100 4200 50  0001 C CNN
	1    2100 4200
	1    0    0    -1  
$EndComp
$Comp
L power:+3.3V #PWR010
U 1 1 5DF971F3
P 1700 4000
F 0 "#PWR010" H 1700 3850 50  0001 C CNN
F 1 "+3.3V" H 1715 4173 50  0000 C CNN
F 2 "" H 1700 4000 50  0001 C CNN
F 3 "" H 1700 4000 50  0001 C CNN
	1    1700 4000
	-1   0    0    -1  
$EndComp
$Comp
L power:+3.3V #PWR013
U 1 1 5DF96B90
P 2100 4000
F 0 "#PWR013" H 2100 3850 50  0001 C CNN
F 1 "+3.3V" H 2115 4173 50  0000 C CNN
F 2 "" H 2100 4000 50  0001 C CNN
F 3 "" H 2100 4000 50  0001 C CNN
	1    2100 4000
	-1   0    0    -1  
$EndComp
$Comp
L Device:C_Small C14
U 1 1 5DF923F8
P 1700 4100
F 0 "C14" H 1792 4146 50  0000 L CNN
F 1 "10u" H 1792 4055 50  0000 L CNN
F 2 "Capacitor_SMD:C_0603_1608Metric" H 1700 4100 50  0001 C CNN
F 3 "~" H 1700 4100 50  0001 C CNN
	1    1700 4100
	1    0    0    -1  
$EndComp
$Comp
L Device:C_Small C15
U 1 1 5DF923DA
P 2100 4100
F 0 "C15" H 2192 4146 50  0000 L CNN
F 1 "100n" H 2192 4055 50  0000 L CNN
F 2 "Capacitor_SMD:C_0402_1005Metric" H 2100 4100 50  0001 C CNN
F 3 "~" H 2100 4100 50  0001 C CNN
	1    2100 4100
	1    0    0    -1  
$EndComp
$Comp
L power:VSSA #PWR022
U 1 1 5DF91960
P 3700 4200
F 0 "#PWR022" H 3700 4050 50  0001 C CNN
F 1 "VSSA" H 3718 4373 50  0000 C CNN
F 2 "" H 3700 4200 50  0001 C CNN
F 3 "" H 3700 4200 50  0001 C CNN
	1    3700 4200
	-1   0    0    1   
$EndComp
$Comp
L power:VDDA #PWR021
U 1 1 5DF916B9
P 3700 4000
F 0 "#PWR021" H 3700 3850 50  0001 C CNN
F 1 "VDDA" H 3718 4173 50  0000 C CNN
F 2 "" H 3700 4000 50  0001 C CNN
F 3 "" H 3700 4000 50  0001 C CNN
	1    3700 4000
	-1   0    0    -1  
$EndComp
$Comp
L Device:C_Small C17
U 1 1 5DF90C06
P 3700 4100
F 0 "C17" H 3792 4146 50  0000 L CNN
F 1 "10u" H 3792 4055 50  0000 L CNN
F 2 "Capacitor_SMD:C_0603_1608Metric" H 3700 4100 50  0001 C CNN
F 3 "~" H 3700 4100 50  0001 C CNN
	1    3700 4100
	1    0    0    -1  
$EndComp
$Comp
L power:VSSA #PWR020
U 1 1 5DF8FBCE
P 3300 4200
F 0 "#PWR020" H 3300 4050 50  0001 C CNN
F 1 "VSSA" H 3318 4373 50  0000 C CNN
F 2 "" H 3300 4200 50  0001 C CNN
F 3 "" H 3300 4200 50  0001 C CNN
	1    3300 4200
	-1   0    0    1   
$EndComp
$Comp
L power:VDDA #PWR019
U 1 1 5DF8ED4D
P 3300 4000
F 0 "#PWR019" H 3300 3850 50  0001 C CNN
F 1 "VDDA" H 3318 4173 50  0000 C CNN
F 2 "" H 3300 4000 50  0001 C CNN
F 3 "" H 3300 4000 50  0001 C CNN
	1    3300 4000
	-1   0    0    -1  
$EndComp
$Comp
L Device:C_Small C16
U 1 1 5DF8EAE8
P 3300 4100
F 0 "C16" H 3392 4146 50  0000 L CNN
F 1 "100n" H 3392 4055 50  0000 L CNN
F 2 "Capacitor_SMD:C_0402_1005Metric" H 3300 4100 50  0001 C CNN
F 3 "~" H 3300 4100 50  0001 C CNN
	1    3300 4100
	1    0    0    -1  
$EndComp
Text HLabel 1000 5300 0    50   Input ~ 0
MUTE
Wire Wire Line
	1300 5300 1000 5300
Connection ~ 1300 5300
$Comp
L Device:C_Small C?
U 1 1 5EDE57ED
P 5100 4600
F 0 "C?" V 4871 4600 50  0000 C CNN
F 1 "1u" V 4962 4600 50  0000 C CNN
F 2 "" H 5100 4600 50  0001 C CNN
F 3 "~" H 5100 4600 50  0001 C CNN
	1    5100 4600
	0    1    1    0   
$EndComp
Wire Wire Line
	5000 4600 4500 4600
Connection ~ 4500 4600
Text Label 4600 4600 0    50   ~ 0
DAC_OUTL
Text Label 4600 5100 0    50   ~ 0
DAC_OUTR
$Comp
L Device:C_Small C?
U 1 1 5EDE81DB
P 5100 5100
F 0 "C?" V 4871 5100 50  0000 C CNN
F 1 "1u" V 4962 5100 50  0000 C CNN
F 2 "" H 5100 5100 50  0001 C CNN
F 3 "~" H 5100 5100 50  0001 C CNN
	1    5100 5100
	0    1    1    0   
$EndComp
Wire Wire Line
	4500 5100 5000 5100
Connection ~ 4500 5100
Wire Wire Line
	5400 5000 5400 4600
Wire Wire Line
	5400 4600 5200 4600
Wire Wire Line
	5200 5100 5300 5100
Text Label 3400 5100 0    50   ~ 0
DAC_VOUTR
Text Label 3400 4600 0    50   ~ 0
DAC_VOUTL
Wire Wire Line
	5300 5100 5300 4700
Text Label 5500 5000 0    50   ~ 0
AMP_INL
Text Label 7100 4700 0    50   ~ 0
AMP_OUTR
Text Label 7100 4900 0    50   ~ 0
AMP_OUTL
Wire Wire Line
	7600 4600 7600 5100
Wire Wire Line
	7700 4600 7600 4600
$Comp
L power:VSSA #PWR0146
U 1 1 5EE04E25
P 7600 5100
F 0 "#PWR0146" H 7600 4950 50  0001 C CNN
F 1 "VSSA" H 7618 5273 50  0000 C CNN
F 2 "" H 7600 5100 50  0001 C CNN
F 3 "" H 7600 5100 50  0001 C CNN
	1    7600 5100
	-1   0    0    1   
$EndComp
Wire Wire Line
	7000 4900 7700 4900
Wire Wire Line
	7000 4700 7700 4700
Connection ~ 5900 4900
Wire Wire Line
	5900 4600 6000 4600
Wire Wire Line
	5900 4900 5900 4600
Wire Wire Line
	5900 4900 6000 4900
$Comp
L Amplifier_Audio:TPA6132A2RTE U6
U 1 1 5EDE4644
P 6500 5000
F 0 "U6" H 6500 5781 50  0000 C CNN
F 1 "TPA6132A2RTE" H 6500 5690 50  0000 C CNN
F 2 "Package_DFN_QFN:WQFN-16-1EP_3x3mm_P0.5mm_EP1.6x1.6mm_ThermalVias" H 6600 4450 50  0001 C CNN
F 3 "https://www.ti.com/lit/ds/symlink/tpa6132a2.pdf" H 6200 5550 50  0001 C CNN
	1    6500 5000
	1    0    0    -1  
$EndComp
Wire Wire Line
	5300 4700 6000 4700
Wire Wire Line
	6000 5000 5400 5000
Text Label 8600 3000 0    50   ~ 0
MIC1_IN_N
Text Label 8600 2600 0    50   ~ 0
MIC1_IN_P
Connection ~ 8500 4100
$Comp
L Device:C_Small C?
U 1 1 5DE16641
P 8500 4300
F 0 "C?" H 8592 4346 50  0000 L CNN
F 1 "220p" H 8592 4255 50  0000 L CNN
F 2 "Capacitor_SMD:C_0402_1005Metric" H 8500 4300 50  0001 C CNN
F 3 "~" H 8500 4300 50  0001 C CNN
	1    8500 4300
	1    0    0    -1  
$EndComp
Wire Wire Line
	7700 4500 7600 4500
Wire Wire Line
	8500 3800 8500 3700
$Comp
L power:GND #PWR0144
U 1 1 5DE64E3B
P 7400 4000
F 0 "#PWR0144" H 7400 3750 50  0001 C CNN
F 1 "GND" H 7405 3827 50  0000 C CNN
F 2 "" H 7400 4000 50  0001 C CNN
F 3 "" H 7400 4000 50  0001 C CNN
	1    7400 4000
	1    0    0    -1  
$EndComp
$Comp
L Device:C_Small C?
U 1 1 5DE25987
P 7400 3900
F 0 "C?" H 7492 3946 50  0000 L CNN
F 1 "1u" H 7492 3855 50  0000 L CNN
F 2 "Capacitor_SMD:C_0402_1005Metric" H 7400 3900 50  0001 C CNN
F 3 "~" H 7400 3900 50  0001 C CNN
	1    7400 3900
	1    0    0    -1  
$EndComp
$Comp
L power:GND #PWR0143
U 1 1 5DE24ED4
P 8500 4800
F 0 "#PWR0143" H 8500 4550 50  0001 C CNN
F 1 "GND" H 8505 4627 50  0000 C CNN
F 2 "" H 8500 4800 50  0001 C CNN
F 3 "" H 8500 4800 50  0001 C CNN
	1    8500 4800
	1    0    0    -1  
$EndComp
Text HLabel 9200 2600 2    50   Output ~ 0
MIC1_P
Text HLabel 9200 3000 2    50   Output ~ 0
MIC1_N
Wire Wire Line
	8500 4000 8500 4100
Wire Wire Line
	8500 4500 8500 4600
$Comp
L Device:R_Small R?
U 1 1 5DE1C77F
P 8500 4700
F 0 "R?" H 8559 4746 50  0000 L CNN
F 1 "0" H 8559 4655 50  0000 L CNN
F 2 "Resistor_SMD:R_0402_1005Metric" H 8500 4700 50  0001 C CNN
F 3 "~" H 8500 4700 50  0001 C CNN
	1    8500 4700
	1    0    0    -1  
$EndComp
$Comp
L Device:C_Small C?
U 1 1 5DE1AC61
P 9100 4500
F 0 "C?" V 8871 4500 50  0000 C CNN
F 1 "47n" V 8962 4500 50  0000 C CNN
F 2 "Capacitor_SMD:C_0402_1005Metric" H 9100 4500 50  0001 C CNN
F 3 "~" H 9100 4500 50  0001 C CNN
	1    9100 4500
	0    1    1    0   
$EndComp
$Comp
L Device:C_Small C?
U 1 1 5DE17874
P 9100 4100
F 0 "C?" V 8871 4100 50  0000 C CNN
F 1 "47n" V 8962 4100 50  0000 C CNN
F 2 "Capacitor_SMD:C_0402_1005Metric" H 9100 4100 50  0001 C CNN
F 3 "~" H 9100 4100 50  0001 C CNN
	1    9100 4100
	0    1    1    0   
$EndComp
$Comp
L Device:R_Small R?
U 1 1 5DE16E64
P 8500 3900
F 0 "R?" H 8559 3946 50  0000 L CNN
F 1 "2k2" H 8559 3855 50  0000 L CNN
F 2 "Resistor_SMD:R_0402_1005Metric" H 8500 3900 50  0001 C CNN
F 3 "~" H 8500 3900 50  0001 C CNN
	1    8500 3900
	1    0    0    -1  
$EndComp
$Comp
L Connector:AudioJack4_SwitchTR1 J?
U 1 1 5DE12F54
P 7900 4700
AR Path="/5DE12F54" Ref="J?"  Part="1" 
AR Path="/5DF6D601/5DE12F54" Ref="J4"  Part="1" 
F 0 "J4" H 7800 5150 50  0000 C CNN
F 1 "Headset" H 7800 5050 50  0000 C CNN
F 2 "" H 7850 4700 50  0001 C CNN
F 3 "~" H 7850 4700 50  0001 C CNN
	1    7900 4700
	-1   0    0    -1  
$EndComp
Text Label 5500 4700 0    50   ~ 0
AMP_INR
Wire Wire Line
	6600 5600 6600 5900
$Comp
L Device:C_Small C?
U 1 1 5EE3D5FA
P 6500 5700
F 0 "C?" V 6450 5550 50  0000 L CNN
F 1 "1u" V 6550 5550 50  0000 L CNN
F 2 "" H 6500 5700 50  0001 C CNN
F 3 "~" H 6500 5700 50  0001 C CNN
	1    6500 5700
	1    0    0    -1  
$EndComp
Wire Wire Line
	6400 5600 6400 5900
Wire Wire Line
	6400 5900 6500 5900
Wire Wire Line
	6500 5900 6500 5800
Wire Wire Line
	6500 5900 6600 5900
Connection ~ 6500 5900
Connection ~ 6600 5900
Wire Wire Line
	6600 5900 6600 6000
$Comp
L power:GND #PWR0147
U 1 1 5EE36895
P 6600 6000
F 0 "#PWR0147" H 6600 5750 50  0001 C CNN
F 1 "GND" H 6605 5827 50  0000 C CNN
F 2 "" H 6600 6000 50  0001 C CNN
F 3 "" H 6600 6000 50  0001 C CNN
	1    6600 6000
	1    0    0    -1  
$EndComp
Wire Wire Line
	6300 6000 6300 5600
$Comp
L power:VSSA #PWR0148
U 1 1 5EE076E0
P 6300 6000
F 0 "#PWR0148" H 6300 5850 50  0001 C CNN
F 1 "VSSA" H 6318 6173 50  0000 C CNN
F 2 "" H 6300 6000 50  0001 C CNN
F 3 "" H 6300 6000 50  0001 C CNN
	1    6300 6000
	-1   0    0    1   
$EndComp
Wire Wire Line
	5900 6000 5900 4900
$Comp
L power:GND #PWR0149
U 1 1 5EDF0B97
P 5900 6000
F 0 "#PWR0149" H 5900 5750 50  0001 C CNN
F 1 "GND" H 5905 5827 50  0000 C CNN
F 2 "" H 5900 6000 50  0001 C CNN
F 3 "" H 5900 6000 50  0001 C CNN
	1    5900 6000
	1    0    0    -1  
$EndComp
Text Notes 5600 6300 0    50   ~ 0
TODO:\nGND or VSSA?
Text Label 2400 1500 0    50   ~ 0
AUX_INR
Text Label 2400 1700 0    50   ~ 0
AUX_INL
Text HLabel 4200 1700 2    50   Output ~ 0
AIL
Connection ~ 3900 1700
Wire Wire Line
	3900 1700 4000 1700
Connection ~ 3600 1500
Wire Wire Line
	3600 1500 4000 1500
$Comp
L Device:CP_Small C?
U 1 1 5EE6E2CA
P 4100 1700
F 0 "C?" V 4325 1700 50  0000 C CNN
F 1 "10u" V 4234 1700 50  0000 C CNN
F 2 "" H 4100 1700 50  0001 C CNN
F 3 "~" H 4100 1700 50  0001 C CNN
	1    4100 1700
	0    -1   -1   0   
$EndComp
$Comp
L Device:CP_Small C?
U 1 1 5EE6D27D
P 4100 1500
F 0 "C?" V 4325 1500 50  0000 C CNN
F 1 "10u" V 4234 1500 50  0000 C CNN
F 2 "" H 4100 1500 50  0001 C CNN
F 3 "~" H 4100 1500 50  0001 C CNN
	1    4100 1500
	0    -1   -1   0   
$EndComp
Connection ~ 3300 1700
Wire Wire Line
	3900 1700 3900 1800
Wire Wire Line
	3300 1700 3900 1700
Connection ~ 3000 1500
Wire Wire Line
	3600 1500 3600 1800
Wire Wire Line
	3000 1500 3600 1500
$Comp
L Device:C_Small C?
U 1 1 5EE67CCD
P 3900 1900
F 0 "C?" H 3992 1946 50  0000 L CNN
F 1 "470p" H 3992 1855 50  0000 L CNN
F 2 "" H 3900 1900 50  0001 C CNN
F 3 "~" H 3900 1900 50  0001 C CNN
	1    3900 1900
	1    0    0    -1  
$EndComp
$Comp
L Device:C_Small C?
U 1 1 5EE675C2
P 3600 1900
F 0 "C?" H 3692 1946 50  0000 L CNN
F 1 "470p" H 3692 1855 50  0000 L CNN
F 2 "" H 3600 1900 50  0001 C CNN
F 3 "~" H 3600 1900 50  0001 C CNN
	1    3600 1900
	1    0    0    -1  
$EndComp
Wire Wire Line
	3300 1700 3300 1800
Wire Wire Line
	2900 1700 3300 1700
Wire Wire Line
	3000 1500 3000 1800
Wire Wire Line
	2900 1500 3000 1500
$Comp
L Device:R_Small R?
U 1 1 5EE5D6BA
P 3300 1900
F 0 "R?" H 3359 1946 50  0000 L CNN
F 1 "10k" H 3359 1855 50  0000 L CNN
F 2 "" H 3300 1900 50  0001 C CNN
F 3 "~" H 3300 1900 50  0001 C CNN
	1    3300 1900
	1    0    0    -1  
$EndComp
$Comp
L Device:R_Small R?
U 1 1 5EE5CE27
P 3000 1900
F 0 "R?" H 3059 1946 50  0000 L CNN
F 1 "10k" H 3059 1855 50  0000 L CNN
F 2 "" H 3000 1900 50  0001 C CNN
F 3 "~" H 3000 1900 50  0001 C CNN
	1    3000 1900
	1    0    0    -1  
$EndComp
Wire Wire Line
	2200 1500 2700 1500
Wire Wire Line
	2200 1700 2700 1700
$Comp
L Device:R_Small R?
U 1 1 5EE2486D
P 2800 1700
F 0 "R?" V 2604 1700 50  0000 C CNN
F 1 "1k" V 2695 1700 50  0000 C CNN
F 2 "" H 2800 1700 50  0001 C CNN
F 3 "~" H 2800 1700 50  0001 C CNN
	1    2800 1700
	0    1    1    0   
$EndComp
$Comp
L Device:R_Small R?
U 1 1 5EE2381D
P 2800 1500
F 0 "R?" V 2604 1500 50  0000 C CNN
F 1 "1k" V 2695 1500 50  0000 C CNN
F 2 "" H 2800 1500 50  0001 C CNN
F 3 "~" H 2800 1500 50  0001 C CNN
	1    2800 1500
	0    1    1    0   
$EndComp
$Comp
L Device:Microphone_Condenser MK1
U 1 1 5EEAD3D5
P 7900 2950
F 0 "MK1" H 8030 2996 50  0000 L CNN
F 1 "Electret" H 8030 2905 50  0000 L CNN
F 2 "" V 7900 3050 50  0001 C CNN
F 3 "~" V 7900 3050 50  0001 C CNN
	1    7900 2950
	1    0    0    -1  
$EndComp
$Comp
L power:VSSA #PWR0150
U 1 1 5EEC7E65
P 7900 3150
F 0 "#PWR0150" H 7900 3000 50  0001 C CNN
F 1 "VSSA" H 7918 3323 50  0000 C CNN
F 2 "" H 7900 3150 50  0001 C CNN
F 3 "" H 7900 3150 50  0001 C CNN
	1    7900 3150
	-1   0    0    1   
$EndComp
Wire Wire Line
	7600 4100 7600 4500
Wire Wire Line
	7600 4100 8500 4100
Wire Wire Line
	8500 4100 9000 4100
Wire Wire Line
	8500 4500 9000 4500
Wire Wire Line
	8500 4100 8500 4200
Wire Wire Line
	8500 4500 8500 4400
Connection ~ 8500 4500
Connection ~ 8500 3000
Wire Wire Line
	8500 3000 8500 2900
Wire Wire Line
	8500 2600 8500 2700
Wire Wire Line
	8500 3000 9000 3000
Wire Wire Line
	8500 2600 9000 2600
$Comp
L Device:R_Small R?
U 1 1 5EEF75A0
P 8500 2400
F 0 "R?" H 8559 2446 50  0000 L CNN
F 1 "2k2" H 8559 2355 50  0000 L CNN
F 2 "Resistor_SMD:R_0402_1005Metric" H 8500 2400 50  0001 C CNN
F 3 "~" H 8500 2400 50  0001 C CNN
	1    8500 2400
	1    0    0    -1  
$EndComp
$Comp
L Device:C_Small C?
U 1 1 5EEF7596
P 9100 2600
F 0 "C?" V 8871 2600 50  0000 C CNN
F 1 "47n" V 8962 2600 50  0000 C CNN
F 2 "Capacitor_SMD:C_0402_1005Metric" H 9100 2600 50  0001 C CNN
F 3 "~" H 9100 2600 50  0001 C CNN
	1    9100 2600
	0    1    1    0   
$EndComp
$Comp
L Device:C_Small C?
U 1 1 5EEF758C
P 9100 3000
F 0 "C?" V 8871 3000 50  0000 C CNN
F 1 "47n" V 8962 3000 50  0000 C CNN
F 2 "Capacitor_SMD:C_0402_1005Metric" H 9100 3000 50  0001 C CNN
F 3 "~" H 9100 3000 50  0001 C CNN
	1    9100 3000
	0    1    1    0   
$EndComp
$Comp
L Device:R_Small R?
U 1 1 5EEF7582
P 8500 3200
F 0 "R?" H 8559 3246 50  0000 L CNN
F 1 "0" H 8559 3155 50  0000 L CNN
F 2 "Resistor_SMD:R_0402_1005Metric" H 8500 3200 50  0001 C CNN
F 3 "~" H 8500 3200 50  0001 C CNN
	1    8500 3200
	1    0    0    -1  
$EndComp
Wire Wire Line
	8500 3000 8500 3100
Wire Wire Line
	8500 2500 8500 2600
$Comp
L power:GND #PWR0151
U 1 1 5EEF7574
P 8500 3300
F 0 "#PWR0151" H 8500 3050 50  0001 C CNN
F 1 "GND" H 8505 3127 50  0000 C CNN
F 2 "" H 8500 3300 50  0001 C CNN
F 3 "" H 8500 3300 50  0001 C CNN
	1    8500 3300
	1    0    0    -1  
$EndComp
Wire Wire Line
	8500 2300 8500 2200
$Comp
L Device:C_Small C?
U 1 1 5EEF7553
P 8500 2800
F 0 "C?" H 8592 2846 50  0000 L CNN
F 1 "220p" H 8592 2755 50  0000 L CNN
F 2 "Capacitor_SMD:C_0402_1005Metric" H 8500 2800 50  0001 C CNN
F 3 "~" H 8500 2800 50  0001 C CNN
	1    8500 2800
	1    0    0    -1  
$EndComp
Connection ~ 8500 2600
Text Label 8600 4100 0    50   ~ 0
MIC2_IN_P
Text Label 8600 4500 0    50   ~ 0
MIC2_IN_N
Text Label 8000 3700 0    50   ~ 0
MIC_BIAS
Text Notes 2650 2300 0    50   ~ 0
TODO:\nGND or VSSA?
$Comp
L power:GND #PWR0152
U 1 1 5EFA921F
P 3000 2000
F 0 "#PWR0152" H 3000 1750 50  0001 C CNN
F 1 "GND" H 3005 1827 50  0000 C CNN
F 2 "" H 3000 2000 50  0001 C CNN
F 3 "" H 3000 2000 50  0001 C CNN
	1    3000 2000
	1    0    0    -1  
$EndComp
$Comp
L power:GND #PWR0153
U 1 1 5EFA959C
P 3300 2000
F 0 "#PWR0153" H 3300 1750 50  0001 C CNN
F 1 "GND" H 3305 1827 50  0000 C CNN
F 2 "" H 3300 2000 50  0001 C CNN
F 3 "" H 3300 2000 50  0001 C CNN
	1    3300 2000
	1    0    0    -1  
$EndComp
$Comp
L power:GND #PWR0154
U 1 1 5EFA96E2
P 3600 2000
F 0 "#PWR0154" H 3600 1750 50  0001 C CNN
F 1 "GND" H 3605 1827 50  0000 C CNN
F 2 "" H 3600 2000 50  0001 C CNN
F 3 "" H 3600 2000 50  0001 C CNN
	1    3600 2000
	1    0    0    -1  
$EndComp
$Comp
L power:GND #PWR0155
U 1 1 5EFA9819
P 3900 2000
F 0 "#PWR0155" H 3900 1750 50  0001 C CNN
F 1 "GND" H 3905 1827 50  0000 C CNN
F 2 "" H 3900 2000 50  0001 C CNN
F 3 "" H 3900 2000 50  0001 C CNN
	1    3900 2000
	1    0    0    -1  
$EndComp
$Comp
L Device:C_Small C?
U 1 1 5EFBC097
P 7400 2400
F 0 "C?" H 7492 2446 50  0000 L CNN
F 1 "1u" H 7492 2355 50  0000 L CNN
F 2 "Capacitor_SMD:C_0402_1005Metric" H 7400 2400 50  0001 C CNN
F 3 "~" H 7400 2400 50  0001 C CNN
	1    7400 2400
	1    0    0    -1  
$EndComp
$Comp
L power:GND #PWR0157
U 1 1 5EFBC08D
P 7400 2500
F 0 "#PWR0157" H 7400 2250 50  0001 C CNN
F 1 "GND" H 7405 2327 50  0000 C CNN
F 2 "" H 7400 2500 50  0001 C CNN
F 3 "" H 7400 2500 50  0001 C CNN
	1    7400 2500
	1    0    0    -1  
$EndComp
Wire Wire Line
	7900 2600 7900 2750
Wire Wire Line
	7900 2600 8500 2600
NoConn ~ 7700 4800
NoConn ~ 7700 5000
Text HLabel 9200 4500 2    50   Output ~ 0
MIC2_N
Text HLabel 9200 4100 2    50   Output ~ 0
MIC2_P
Text HLabel 7100 2200 0    50   Input ~ 0
MIC_BIAS
Text HLabel 4200 1500 2    50   Output ~ 0
AIR
Text Label 2000 5200 0    50   ~ 0
DEEM
$Comp
L power:VSSA #PWR?
U 1 1 5F185E5E
P 2300 1900
F 0 "#PWR?" H 2300 1750 50  0001 C CNN
F 1 "VSSA" H 2318 2073 50  0000 C CNN
F 2 "" H 2300 1900 50  0001 C CNN
F 3 "" H 2300 1900 50  0001 C CNN
	1    2300 1900
	-1   0    0    1   
$EndComp
$Comp
L Connector:AudioJack3_Switch J3
U 1 1 5F18D8A6
P 2000 1500
F 0 "J3" H 1982 1925 50  0000 C CNN
F 1 "Aux-In" H 1982 1834 50  0000 C CNN
F 2 "" H 2000 1500 50  0001 C CNN
F 3 "~" H 2000 1500 50  0001 C CNN
	1    2000 1500
	1    0    0    -1  
$EndComp
Wire Wire Line
	2300 1900 2300 1300
Wire Wire Line
	2300 1300 2200 1300
Wire Wire Line
	7400 3700 8500 3700
Wire Wire Line
	7100 2200 7200 2200
Wire Wire Line
	7400 3700 7400 3800
Wire Wire Line
	7400 3700 7200 3700
Wire Wire Line
	7200 3700 7200 2200
Connection ~ 7400 3700
Connection ~ 7200 2200
Wire Wire Line
	7200 2200 7400 2200
Wire Wire Line
	7400 2300 7400 2200
Connection ~ 7400 2200
Wire Wire Line
	7400 2200 8500 2200
Text Label 8000 2200 0    50   ~ 0
MIC_BIAS
$EndSCHEMATC
