EESchema Schematic File Version 4
EELAYER 30 0
EELAYER END
$Descr A4 11693 8268
encoding utf-8
Sheet 1 1
Title ""
Date ""
Rev ""
Comp ""
Comment1 ""
Comment2 ""
Comment3 ""
Comment4 ""
$EndDescr
$Comp
L power:GND #PWR0131
U 1 1 5D259001
P 10600 1600
F 0 "#PWR0131" H 10600 1350 50  0001 C CNN
F 1 "GND" V 10605 1472 50  0000 R CNN
F 2 "" H 10600 1600 50  0001 C CNN
F 3 "" H 10600 1600 50  0001 C CNN
	1    10600 1600
	0    -1   -1   0   
$EndComp
$Comp
L Connector_Generic_MountingPin:Conn_01x02_MountingPin J2
U 1 1 5D29AE32
P 10400 1700
F 0 "J2" H 10500 1600 50  0000 L CNN
F 1 "Battery" H 10500 1700 50  0000 L CNN
F 2 "Connector_JST:JST_PH_S2B-PH-SM4-TB_1x02-1MP_P2.00mm_Horizontal" H 10400 1700 50  0001 C CNN
F 3 "~" H 10400 1700 50  0001 C CNN
	1    10400 1700
	-1   0    0    1   
$EndComp
NoConn ~ 10400 1400
NoConn ~ 1700 2100
NoConn ~ 1700 2000
$Comp
L Connector:USB_C_Receptacle_USB2.0 J?
U 1 1 5DF01D65
P 1100 1500
AR Path="/5C98F9BA/5DF01D65" Ref="J?"  Part="1" 
AR Path="/5DF01D65" Ref="J1"  Part="1" 
F 0 "J1" H 1100 2350 50  0000 C CNN
F 1 "USB-C" H 1100 2250 50  0000 C CNN
F 2 "Connector_USB:USB_C_Receptacle_HRO_TYPE-C-31-M-12" H 1250 1500 50  0001 C CNN
F 3 "https://www.usb.org/sites/default/files/documents/usb_type-c.zip" H 1250 1500 50  0001 C CNN
	1    1100 1500
	1    0    0    -1  
$EndComp
Wire Wire Line
	2400 1100 1700 1100
Wire Wire Line
	2000 1200 1700 1200
Wire Wire Line
	1700 1400 1800 1400
Connection ~ 1800 1700
Wire Wire Line
	1800 1600 1800 1700
Wire Wire Line
	1700 1600 1800 1600
Wire Wire Line
	1800 1700 1700 1700
Wire Wire Line
	2400 1500 2400 1100
Wire Wire Line
	2000 1500 2000 1200
$Comp
L Device:R_Small R?
U 1 1 5DF01DA8
P 2400 1600
AR Path="/5C98F9BA/5DF01DA8" Ref="R?"  Part="1" 
AR Path="/5DF01DA8" Ref="R3"  Part="1" 
F 0 "R3" H 2459 1646 50  0000 L CNN
F 1 "5k1" H 2459 1555 50  0000 L CNN
F 2 "Resistor_SMD:R_0402_1005Metric" H 2400 1600 50  0001 C CNN
F 3 "~" H 2400 1600 50  0001 C CNN
	1    2400 1600
	1    0    0    -1  
$EndComp
$Comp
L Device:R_Small R?
U 1 1 5DF01DA2
P 2000 1600
AR Path="/5C98F9BA/5DF01DA2" Ref="R?"  Part="1" 
AR Path="/5DF01DA2" Ref="R2"  Part="1" 
F 0 "R2" H 2059 1646 50  0000 L CNN
F 1 "5k1" H 2059 1555 50  0000 L CNN
F 2 "Resistor_SMD:R_0402_1005Metric" H 2000 1600 50  0001 C CNN
F 3 "~" H 2000 1600 50  0001 C CNN
	1    2000 1600
	1    0    0    -1  
$EndComp
$Comp
L power:GND #PWR?
U 1 1 5DF01D77
P 2000 1700
AR Path="/5C98F9BA/5DF01D77" Ref="#PWR?"  Part="1" 
AR Path="/5DF01D77" Ref="#PWR0106"  Part="1" 
F 0 "#PWR0106" H 2000 1450 50  0001 C CNN
F 1 "GND" H 2005 1527 50  0000 C CNN
F 2 "" H 2000 1700 50  0001 C CNN
F 3 "" H 2000 1700 50  0001 C CNN
	1    2000 1700
	1    0    0    -1  
$EndComp
$Comp
L power:GND #PWR?
U 1 1 5DF01D70
P 2400 1700
AR Path="/5C98F9BA/5DF01D70" Ref="#PWR?"  Part="1" 
AR Path="/5DF01D70" Ref="#PWR0105"  Part="1" 
F 0 "#PWR0105" H 2400 1450 50  0001 C CNN
F 1 "GND" H 2405 1527 50  0000 C CNN
F 2 "" H 2400 1700 50  0001 C CNN
F 3 "" H 2400 1700 50  0001 C CNN
	1    2400 1700
	1    0    0    -1  
$EndComp
$Comp
L power:VBUS #PWR?
U 1 1 5DF01D82
P 1800 800
AR Path="/5C98F9BA/5DF01D82" Ref="#PWR?"  Part="1" 
AR Path="/5DF01D82" Ref="#PWR0107"  Part="1" 
F 0 "#PWR0107" H 1800 650 50  0001 C CNN
F 1 "VBUS" H 1815 973 50  0000 C CNN
F 2 "" H 1800 800 50  0001 C CNN
F 3 "" H 1800 800 50  0001 C CNN
	1    1800 800 
	1    0    0    -1  
$EndComp
Text GLabel 6100 2600 1    50   Output ~ 0
SYS_PWR
Text Label 4500 5000 0    50   ~ 0
MFB
Text Label 4500 2900 0    50   ~ 0
~RST
$Comp
L power:GND #PWR06
U 1 1 5E1056B7
P 6000 6000
F 0 "#PWR06" H 6000 5750 50  0001 C CNN
F 1 "GND" H 6005 5827 50  0000 C CNN
F 2 "" H 6000 6000 50  0001 C CNN
F 3 "" H 6000 6000 50  0001 C CNN
	1    6000 6000
	1    0    0    -1  
$EndComp
Wire Wire Line
	1700 900  1800 900 
Wire Wire Line
	1800 900  1800 800 
Wire Wire Line
	1800 1700 1800 2400
Text Label 1700 1600 0    50   ~ 0
D+
$Comp
L Device:C_Small C?
U 1 1 5DF01DB4
P 950 2800
AR Path="/5C98F9BA/5DF01DB4" Ref="C?"  Part="1" 
AR Path="/5DF01DB4" Ref="C1"  Part="1" 
F 0 "C1" V 721 2800 50  0000 C CNN
F 1 "4n7" V 812 2800 50  0000 C CNN
F 2 "Capacitor_SMD:C_0402_1005Metric" H 950 2800 50  0001 C CNN
F 3 "~" H 950 2800 50  0001 C CNN
	1    950  2800
	0    1    1    0   
$EndComp
$Comp
L Device:R_Small R?
U 1 1 5DF01DAE
P 950 2500
AR Path="/5C98F9BA/5DF01DAE" Ref="R?"  Part="1" 
AR Path="/5DF01DAE" Ref="R1"  Part="1" 
F 0 "R1" V 754 2500 50  0000 C CNN
F 1 "1M" V 845 2500 50  0000 C CNN
F 2 "Resistor_SMD:R_0402_1005Metric" H 950 2500 50  0001 C CNN
F 3 "~" H 950 2500 50  0001 C CNN
	1    950  2500
	0    1    1    0   
$EndComp
Wire Wire Line
	1100 2400 1100 2500
Wire Wire Line
	800  2400 800  2500
Wire Wire Line
	1100 2500 1050 2500
Connection ~ 1100 2500
Wire Wire Line
	850  2500 800  2500
Connection ~ 800  2500
Wire Wire Line
	1100 2500 1100 2800
Wire Wire Line
	800  2500 800  2800
Wire Wire Line
	850  2800 800  2800
Wire Wire Line
	1050 2800 1100 2800
$Comp
L power:Earth #PWR?
U 1 1 5DF01D57
P 800 2900
AR Path="/5C98F9BA/5DF01D57" Ref="#PWR?"  Part="1" 
AR Path="/5DF01D57" Ref="#PWR0103"  Part="1" 
F 0 "#PWR0103" H 800 2650 50  0001 C CNN
F 1 "Earth" H 800 2750 50  0001 C CNN
F 2 "" H 800 2900 50  0001 C CNN
F 3 "~" H 800 2900 50  0001 C CNN
	1    800  2900
	1    0    0    -1  
$EndComp
$Comp
L power:GND #PWR?
U 1 1 5DF01D5D
P 1100 2900
AR Path="/5C98F9BA/5DF01D5D" Ref="#PWR?"  Part="1" 
AR Path="/5DF01D5D" Ref="#PWR0104"  Part="1" 
F 0 "#PWR0104" H 1100 2650 50  0001 C CNN
F 1 "GND" H 1105 2727 50  0000 C CNN
F 2 "" H 1100 2900 50  0001 C CNN
F 3 "" H 1100 2900 50  0001 C CNN
	1    1100 2900
	1    0    0    -1  
$EndComp
Connection ~ 1100 2800
Wire Wire Line
	1100 2800 1100 2900
Connection ~ 800  2800
Wire Wire Line
	800  2800 800  2900
$Comp
L Device:C_Small C4
U 1 1 5E171B18
P 7100 2700
F 0 "C4" H 7192 2746 50  0000 L CNN
F 1 "100n" H 7192 2655 50  0000 L CNN
F 2 "Capacitor_SMD:C_0402_1005Metric" H 7100 2700 50  0001 C CNN
F 3 "~" H 7100 2700 50  0001 C CNN
	1    7100 2700
	1    0    0    -1  
$EndComp
Text GLabel 7100 2600 1    50   Input ~ 0
SYS_PWR
$Comp
L power:GND #PWR07
U 1 1 5E17DDB7
P 7100 2800
F 0 "#PWR07" H 7100 2550 50  0001 C CNN
F 1 "GND" H 7105 2627 50  0000 C CNN
F 2 "" H 7100 2800 50  0001 C CNN
F 3 "" H 7100 2800 50  0001 C CNN
	1    7100 2800
	1    0    0    -1  
$EndComp
$Comp
L Device:C_Small C5
U 1 1 5E18D6B3
P 7500 2700
F 0 "C5" H 7592 2746 50  0000 L CNN
F 1 "100n" H 7592 2655 50  0000 L CNN
F 2 "Capacitor_SMD:C_0402_1005Metric" H 7500 2700 50  0001 C CNN
F 3 "~" H 7500 2700 50  0001 C CNN
	1    7500 2700
	1    0    0    -1  
$EndComp
$Comp
L power:GND #PWR08
U 1 1 5E18D6BE
P 7500 2800
F 0 "#PWR08" H 7500 2550 50  0001 C CNN
F 1 "GND" H 7505 2627 50  0000 C CNN
F 2 "" H 7500 2800 50  0001 C CNN
F 3 "" H 7500 2800 50  0001 C CNN
	1    7500 2800
	1    0    0    -1  
$EndComp
Text Label 4500 4400 0    50   ~ 0
SK1_AMB_DET
$Comp
L power:GND #PWR05
U 1 1 5E205013
P 4200 4700
F 0 "#PWR05" H 4200 4450 50  0001 C CNN
F 1 "GND" H 4205 4527 50  0000 C CNN
F 2 "" H 4200 4700 50  0001 C CNN
F 3 "" H 4200 4700 50  0001 C CNN
	1    4200 4700
	1    0    0    -1  
$EndComp
$Comp
L Device:C_Small C8
U 1 1 5E204969
P 4200 4600
F 0 "C8" H 4292 4646 50  0000 L CNN
F 1 "1u" H 4292 4555 50  0000 L CNN
F 2 "Capacitor_SMD:C_0402_1005Metric" H 4200 4600 50  0001 C CNN
F 3 "~" H 4200 4600 50  0001 C CNN
	1    4200 4600
	1    0    0    -1  
$EndComp
Wire Wire Line
	5000 4500 4500 4500
Text Label 4500 4500 0    50   ~ 0
SK2_KEY_AD
Wire Wire Line
	5000 4700 4500 4700
Wire Wire Line
	5000 4800 4500 4800
Text Label 4500 4700 0    50   ~ 0
D-
Text Label 4500 4800 0    50   ~ 0
D+
Wire Wire Line
	5000 5200 4500 5200
Text Label 4500 5200 0    50   ~ 0
TXD
Wire Wire Line
	5000 5300 4500 5300
Text Label 4500 5300 0    50   ~ 0
RXD
Wire Wire Line
	5000 5400 4500 5400
Wire Wire Line
	5000 5500 4500 5500
Wire Wire Line
	5000 5100 4500 5100
Wire Wire Line
	5000 5600 4500 5600
Wire Wire Line
	5000 5700 4500 5700
Text Label 4500 5600 0    50   ~ 0
SCL
Text Label 4500 5700 0    50   ~ 0
SDA
Text Label 4500 3100 0    50   ~ 0
AI_R
Text Label 4500 3200 0    50   ~ 0
AI_L
Text Label 4500 3400 0    50   ~ 0
MIC1_N
Text Label 4500 3500 0    50   ~ 0
MIC1_P
Text Label 4500 3700 0    50   ~ 0
MIC2_N
Text Label 4500 3800 0    50   ~ 0
MIC2_P
Wire Wire Line
	5000 3700 4500 3700
Wire Wire Line
	5000 3800 4500 3800
Wire Wire Line
	5000 3500 4500 3500
Wire Wire Line
	5000 3400 4500 3400
$Comp
L power:VBUS #PWR0102
U 1 1 5E2D0F23
P 5700 2600
F 0 "#PWR0102" H 5700 2450 50  0001 C CNN
F 1 "VBUS" H 5715 2773 50  0000 C CNN
F 2 "" H 5700 2600 50  0001 C CNN
F 3 "" H 5700 2600 50  0001 C CNN
	1    5700 2600
	1    0    0    -1  
$EndComp
Text Label 10500 2000 2    50   ~ 0
EN
Text Label 8500 1500 0    50   ~ 0
~RST
Wire Wire Line
	8500 1500 9000 1500
Wire Wire Line
	8500 1700 9000 1700
Text Label 8500 1700 0    50   ~ 0
AREF
Text Label 4500 3600 0    50   ~ 0
MIC_BIAS
Wire Wire Line
	5000 4000 4500 4000
Wire Wire Line
	5000 4100 4500 4100
Wire Wire Line
	5000 4200 4500 4200
Text Label 4500 4000 0    50   ~ 0
DMIC_CLK
Text Label 4500 4100 0    50   ~ 0
DMIC_R
Text Label 4500 4200 0    50   ~ 0
DMIC_L
Text Label 7500 4700 2    50   ~ 0
FWD
Text Label 7500 4800 2    50   ~ 0
PLAY
Text Label 7500 5000 2    50   ~ 0
VOL-
Text Label 7500 5600 2    50   ~ 0
VOL+
Wire Wire Line
	7000 3400 7500 3400
Wire Wire Line
	7000 3600 7500 3600
Text Label 7500 3500 2    50   ~ 0
AOHP_M
Text Label 7500 3600 2    50   ~ 0
AOHP_L
Text Label 7500 3800 2    50   ~ 0
MCK
Text Label 7500 4100 2    50   ~ 0
SDIN
Text Label 7500 4200 2    50   ~ 0
SDOUT
Text Label 7500 4400 2    50   ~ 0
LED1
Text Label 7500 4500 2    50   ~ 0
LED2
Wire Wire Line
	7000 5200 7500 5200
Wire Wire Line
	7000 5400 7500 5400
Wire Wire Line
	7000 5500 7500 5500
Wire Wire Line
	7000 5600 7500 5600
Wire Wire Line
	7000 5700 7500 5700
Text Label 4500 5400 0    50   ~ 0
CTS
Text Label 4500 5500 0    50   ~ 0
RTS
Text Label 7500 5100 2    50   ~ 0
LED3
Wire Wire Line
	7000 5000 7500 5000
Wire Wire Line
	7000 4900 7500 4900
Wire Wire Line
	7000 4800 7500 4800
Wire Wire Line
	7000 4700 7500 4700
Text Label 7500 4900 2    50   ~ 0
REV
Text Label 7500 3900 2    50   ~ 0
SCK
Text Label 7500 4000 2    50   ~ 0
WS
Text Label 7500 3400 2    50   ~ 0
AOHP_R
Text Label 7500 5700 2    50   ~ 0
AUX_IN_DET
Text Label 4500 5100 0    50   ~ 0
DSP_RST
Text Label 7500 5300 2    50   ~ 0
P1_6
Text Label 7500 5200 2    50   ~ 0
P0_7
Text Label 7500 5500 2    50   ~ 0
P2_6
$Comp
L Power_Protection:USBLC6-2P6 U1
U 1 1 5EE8526D
P 2200 2500
F 0 "U1" H 1950 2850 50  0000 C CNN
F 1 "USBLC6-2P6" H 2500 2150 50  0000 C CNN
F 2 "Package_TO_SOT_SMD:SOT-666" H 2200 2000 50  0001 C CNN
F 3 "https://www.st.com/resource/en/datasheet/usblc6-2.pdf" H 2400 2850 50  0001 C CNN
	1    2200 2500
	1    0    0    -1  
$EndComp
$Comp
L power:GND #PWR?
U 1 1 5EE8AF21
P 2200 2900
AR Path="/5C98F9BA/5EE8AF21" Ref="#PWR?"  Part="1" 
AR Path="/5EE8AF21" Ref="#PWR0101"  Part="1" 
F 0 "#PWR0101" H 2200 2650 50  0001 C CNN
F 1 "GND" H 2205 2727 50  0000 C CNN
F 2 "" H 2200 2900 50  0001 C CNN
F 3 "" H 2200 2900 50  0001 C CNN
	1    2200 2900
	1    0    0    -1  
$EndComp
$Comp
L power:VBUS #PWR?
U 1 1 5EE8B5D2
P 2200 2100
AR Path="/5C98F9BA/5EE8B5D2" Ref="#PWR?"  Part="1" 
AR Path="/5EE8B5D2" Ref="#PWR0127"  Part="1" 
F 0 "#PWR0127" H 2200 1950 50  0001 C CNN
F 1 "VBUS" H 2215 2273 50  0000 C CNN
F 2 "" H 2200 2100 50  0001 C CNN
F 3 "" H 2200 2100 50  0001 C CNN
	1    2200 2100
	1    0    0    -1  
$EndComp
Wire Wire Line
	1800 2600 1800 2400
Connection ~ 1800 2400
Wire Wire Line
	2600 2600 2600 2400
Connection ~ 2600 2400
Text Label 8500 2900 0    50   ~ 0
TXD
Text Label 8500 2800 0    50   ~ 0
RXD
Text Label 10500 3000 2    50   ~ 0
SDA
Text Label 10500 2900 2    50   ~ 0
SCL
$Comp
L 0xdec:Adafruit_Feather A1
U 1 1 5F044D0B
P 9500 2200
F 0 "A1" H 9500 3267 50  0000 C CNN
F 1 "Adafruit_Feather" H 9500 3176 50  0000 C CNN
F 2 "0xdec:Adafruit_Feather" H 9100 3250 50  0001 C CNN
F 3 "https://learn.adafruit.com/adafruit-feather" H 9100 3250 50  0001 C CNN
	1    9500 2200
	1    0    0    -1  
$EndComp
$Comp
L power:Earth #PWR0128
U 1 1 5F054014
P 9000 1400
F 0 "#PWR0128" H 9000 1150 50  0001 C CNN
F 1 "Earth" H 9000 1250 50  0001 C CNN
F 2 "" H 9000 1400 50  0001 C CNN
F 3 "~" H 9000 1400 50  0001 C CNN
	1    9000 1400
	0    1    1    0   
$EndComp
$Comp
L power:Earth #PWR0129
U 1 1 5F055679
P 10000 1400
F 0 "#PWR0129" H 10000 1150 50  0001 C CNN
F 1 "Earth" H 10000 1250 50  0001 C CNN
F 2 "" H 10000 1400 50  0001 C CNN
F 3 "~" H 10000 1400 50  0001 C CNN
	1    10000 1400
	0    -1   -1   0   
$EndComp
$Comp
L power:+3V3 #PWR0130
U 1 1 5F0624B7
P 9000 1600
F 0 "#PWR0130" H 9000 1450 50  0001 C CNN
F 1 "+3V3" V 9015 1728 50  0000 L CNN
F 2 "" H 9000 1600 50  0001 C CNN
F 3 "" H 9000 1600 50  0001 C CNN
	1    9000 1600
	0    -1   -1   0   
$EndComp
$Comp
L power:GND #PWR0132
U 1 1 5F064FAE
P 9000 1800
F 0 "#PWR0132" H 9000 1550 50  0001 C CNN
F 1 "GND" V 9005 1672 50  0000 R CNN
F 2 "" H 9000 1800 50  0001 C CNN
F 3 "" H 9000 1800 50  0001 C CNN
	1    9000 1800
	0    1    -1   0   
$EndComp
$Comp
L power:VBUS #PWR0133
U 1 1 5F065742
P 10000 2100
F 0 "#PWR0133" H 10000 1950 50  0001 C CNN
F 1 "VBUS" V 10015 2228 50  0000 L CNN
F 2 "" H 10000 2100 50  0001 C CNN
F 3 "" H 10000 2100 50  0001 C CNN
	1    10000 2100
	0    1    -1   0   
$EndComp
Wire Wire Line
	10500 2000 10000 2000
Wire Wire Line
	10000 3000 10500 3000
Wire Wire Line
	10000 2900 10500 2900
Wire Wire Line
	8500 2800 9000 2800
Wire Wire Line
	8500 2900 9000 2900
$Comp
L 0xdec:VBAT #PWR0134
U 1 1 5F086BE7
P 10000 1900
F 0 "#PWR0134" H 10000 1750 50  0001 C CNN
F 1 "VBAT" V 10015 2028 50  0000 L CNN
F 2 "" H 10000 1900 50  0001 C CNN
F 3 "" H 10000 1900 50  0001 C CNN
	1    10000 1900
	0    1    -1   0   
$EndComp
$Comp
L 0xdec:VBAT #PWR0145
U 1 1 5F0875BB
P 10600 1700
F 0 "#PWR0145" H 10600 1550 50  0001 C CNN
F 1 "VBAT" V 10615 1828 50  0000 L CNN
F 2 "" H 10600 1700 50  0001 C CNN
F 3 "" H 10600 1700 50  0001 C CNN
	1    10600 1700
	0    1    -1   0   
$EndComp
Text Label 1100 5400 0    50   ~ 0
MIC1_IN_N
Text Label 1100 5000 0    50   ~ 0
MIC1_IN_P
Connection ~ 1000 6400
$Comp
L Device:C_Small C?
U 1 1 5F0A5F62
P 1000 6600
AR Path="/5DF6D601/5F0A5F62" Ref="C?"  Part="1" 
AR Path="/5F0A5F62" Ref="C19"  Part="1" 
F 0 "C19" H 1092 6646 50  0000 L CNN
F 1 "220p" H 1092 6555 50  0000 L CNN
F 2 "Capacitor_SMD:C_0402_1005Metric" H 1000 6600 50  0001 C CNN
F 3 "~" H 1000 6600 50  0001 C CNN
	1    1000 6600
	1    0    0    -1  
$EndComp
Wire Wire Line
	1000 6100 1000 6000
$Comp
L power:GND #PWR?
U 1 1 5F0A5F76
P 1000 7100
AR Path="/5DF6D601/5F0A5F76" Ref="#PWR?"  Part="1" 
AR Path="/5F0A5F76" Ref="#PWR02"  Part="1" 
F 0 "#PWR02" H 1000 6850 50  0001 C CNN
F 1 "GND" H 1005 6927 50  0000 C CNN
F 2 "" H 1000 7100 50  0001 C CNN
F 3 "" H 1000 7100 50  0001 C CNN
	1    1000 7100
	1    0    0    -1  
$EndComp
Wire Wire Line
	1000 6300 1000 6400
Wire Wire Line
	1000 6800 1000 6900
$Comp
L Device:R_Small R?
U 1 1 5F0A5F80
P 1000 7000
AR Path="/5DF6D601/5F0A5F80" Ref="R?"  Part="1" 
AR Path="/5F0A5F80" Ref="R17"  Part="1" 
F 0 "R17" H 1059 7046 50  0000 L CNN
F 1 "0" H 1059 6955 50  0000 L CNN
F 2 "Resistor_SMD:R_0402_1005Metric" H 1000 7000 50  0001 C CNN
F 3 "~" H 1000 7000 50  0001 C CNN
	1    1000 7000
	1    0    0    -1  
$EndComp
$Comp
L Device:C_Small C?
U 1 1 5F0A5F86
P 1600 6800
AR Path="/5DF6D601/5F0A5F86" Ref="C?"  Part="1" 
AR Path="/5F0A5F86" Ref="C17"  Part="1" 
F 0 "C17" V 1371 6800 50  0000 C CNN
F 1 "47n" V 1462 6800 50  0000 C CNN
F 2 "Capacitor_SMD:C_0402_1005Metric" H 1600 6800 50  0001 C CNN
F 3 "~" H 1600 6800 50  0001 C CNN
	1    1600 6800
	0    1    1    0   
$EndComp
$Comp
L Device:C_Small C?
U 1 1 5F0A5F8C
P 1600 6400
AR Path="/5DF6D601/5F0A5F8C" Ref="C?"  Part="1" 
AR Path="/5F0A5F8C" Ref="C16"  Part="1" 
F 0 "C16" V 1371 6400 50  0000 C CNN
F 1 "47n" V 1462 6400 50  0000 C CNN
F 2 "Capacitor_SMD:C_0402_1005Metric" H 1600 6400 50  0001 C CNN
F 3 "~" H 1600 6400 50  0001 C CNN
	1    1600 6400
	0    1    1    0   
$EndComp
$Comp
L Device:R_Small R?
U 1 1 5F0A5F92
P 1000 6200
AR Path="/5DF6D601/5F0A5F92" Ref="R?"  Part="1" 
AR Path="/5F0A5F92" Ref="R16"  Part="1" 
F 0 "R16" H 1059 6246 50  0000 L CNN
F 1 "2k2" H 1059 6155 50  0000 L CNN
F 2 "Resistor_SMD:R_0402_1005Metric" H 1000 6200 50  0001 C CNN
F 3 "~" H 1000 6200 50  0001 C CNN
	1    1000 6200
	1    0    0    -1  
$EndComp
Wire Wire Line
	1000 6400 1500 6400
Wire Wire Line
	1000 6800 1500 6800
Wire Wire Line
	1000 6400 1000 6500
Wire Wire Line
	1000 6800 1000 6700
Connection ~ 1000 6800
Connection ~ 1000 5400
Wire Wire Line
	1000 5400 1000 5300
Wire Wire Line
	1000 5000 1000 5100
Wire Wire Line
	1000 5400 1500 5400
Wire Wire Line
	1000 5000 1500 5000
$Comp
L Device:R_Small R?
U 1 1 5F0A5FB6
P 1000 4800
AR Path="/5DF6D601/5F0A5FB6" Ref="R?"  Part="1" 
AR Path="/5F0A5FB6" Ref="R14"  Part="1" 
F 0 "R14" H 1059 4846 50  0000 L CNN
F 1 "2k2" H 1059 4755 50  0000 L CNN
F 2 "Resistor_SMD:R_0402_1005Metric" H 1000 4800 50  0001 C CNN
F 3 "~" H 1000 4800 50  0001 C CNN
	1    1000 4800
	1    0    0    -1  
$EndComp
$Comp
L Device:C_Small C?
U 1 1 5F0A5FBC
P 1600 5000
AR Path="/5DF6D601/5F0A5FBC" Ref="C?"  Part="1" 
AR Path="/5F0A5FBC" Ref="C14"  Part="1" 
F 0 "C14" V 1371 5000 50  0000 C CNN
F 1 "47n" V 1462 5000 50  0000 C CNN
F 2 "Capacitor_SMD:C_0402_1005Metric" H 1600 5000 50  0001 C CNN
F 3 "~" H 1600 5000 50  0001 C CNN
	1    1600 5000
	0    1    1    0   
$EndComp
$Comp
L Device:R_Small R?
U 1 1 5F0A5FC8
P 1000 5600
AR Path="/5DF6D601/5F0A5FC8" Ref="R?"  Part="1" 
AR Path="/5F0A5FC8" Ref="R15"  Part="1" 
F 0 "R15" H 1059 5646 50  0000 L CNN
F 1 "0" H 1059 5555 50  0000 L CNN
F 2 "Resistor_SMD:R_0402_1005Metric" H 1000 5600 50  0001 C CNN
F 3 "~" H 1000 5600 50  0001 C CNN
	1    1000 5600
	1    0    0    -1  
$EndComp
Wire Wire Line
	1000 5400 1000 5500
Wire Wire Line
	1000 4900 1000 5000
$Comp
L power:GND #PWR?
U 1 1 5F0A5FD0
P 1000 5700
AR Path="/5DF6D601/5F0A5FD0" Ref="#PWR?"  Part="1" 
AR Path="/5F0A5FD0" Ref="#PWR01"  Part="1" 
F 0 "#PWR01" H 1000 5450 50  0001 C CNN
F 1 "GND" H 1005 5527 50  0000 C CNN
F 2 "" H 1000 5700 50  0001 C CNN
F 3 "" H 1000 5700 50  0001 C CNN
	1    1000 5700
	1    0    0    -1  
$EndComp
Wire Wire Line
	1000 4700 1000 4600
$Comp
L Device:C_Small C?
U 1 1 5F0A5FD7
P 1000 5200
AR Path="/5DF6D601/5F0A5FD7" Ref="C?"  Part="1" 
AR Path="/5F0A5FD7" Ref="C18"  Part="1" 
F 0 "C18" H 1092 5246 50  0000 L CNN
F 1 "220p" H 1092 5155 50  0000 L CNN
F 2 "Capacitor_SMD:C_0402_1005Metric" H 1000 5200 50  0001 C CNN
F 3 "~" H 1000 5200 50  0001 C CNN
	1    1000 5200
	1    0    0    -1  
$EndComp
Connection ~ 1000 5000
Text Label 1100 6400 0    50   ~ 0
MIC2_IN_P
Text Label 1100 6800 0    50   ~ 0
MIC2_IN_N
$Comp
L Device:C_Small C?
U 1 1 5F0A5FE1
P 4200 3800
AR Path="/5DF6D601/5F0A5FE1" Ref="C?"  Part="1" 
AR Path="/5F0A5FE1" Ref="C7"  Part="1" 
F 0 "C7" H 4292 3846 50  0000 L CNN
F 1 "1u" H 4292 3755 50  0000 L CNN
F 2 "Capacitor_SMD:C_0402_1005Metric" H 4200 3800 50  0001 C CNN
F 3 "~" H 4200 3800 50  0001 C CNN
	1    4200 3800
	1    0    0    -1  
$EndComp
$Comp
L power:GND #PWR?
U 1 1 5F0A5FE7
P 4200 3900
AR Path="/5DF6D601/5F0A5FE7" Ref="#PWR?"  Part="1" 
AR Path="/5F0A5FE7" Ref="#PWR013"  Part="1" 
F 0 "#PWR013" H 4200 3650 50  0001 C CNN
F 1 "GND" H 4205 3727 50  0000 C CNN
F 2 "" H 4200 3900 50  0001 C CNN
F 3 "" H 4200 3900 50  0001 C CNN
	1    4200 3900
	1    0    0    -1  
$EndComp
Wire Wire Line
	1700 5000 2000 5000
Wire Wire Line
	1700 5400 2000 5400
Text Label 2000 5000 2    50   ~ 0
MIC1_P
Wire Wire Line
	1700 6400 2000 6400
Wire Wire Line
	1700 6800 2000 6800
Text Label 2000 5400 2    50   ~ 0
MIC1_N
Text Label 2000 6800 2    50   ~ 0
MIC2_N
Text Label 2000 6400 2    50   ~ 0
MIC2_P
Wire Wire Line
	5000 3200 4500 3200
Wire Wire Line
	5000 3100 4500 3100
$Comp
L power:GND #PWR?
U 1 1 5F1124A3
P 2500 4200
AR Path="/5DF6D601/5F1124A3" Ref="#PWR?"  Part="1" 
AR Path="/5F1124A3" Ref="#PWR011"  Part="1" 
F 0 "#PWR011" H 2500 3950 50  0001 C CNN
F 1 "GND" H 2505 4027 50  0000 C CNN
F 2 "" H 2500 4200 50  0001 C CNN
F 3 "" H 2500 4200 50  0001 C CNN
	1    2500 4200
	1    0    0    -1  
$EndComp
$Comp
L power:GND #PWR?
U 1 1 5F11249D
P 2200 4200
AR Path="/5DF6D601/5F11249D" Ref="#PWR?"  Part="1" 
AR Path="/5F11249D" Ref="#PWR010"  Part="1" 
F 0 "#PWR010" H 2200 3950 50  0001 C CNN
F 1 "GND" H 2205 4027 50  0000 C CNN
F 2 "" H 2200 4200 50  0001 C CNN
F 3 "" H 2200 4200 50  0001 C CNN
	1    2200 4200
	1    0    0    -1  
$EndComp
$Comp
L power:GND #PWR?
U 1 1 5F112497
P 1900 4200
AR Path="/5DF6D601/5F112497" Ref="#PWR?"  Part="1" 
AR Path="/5F112497" Ref="#PWR09"  Part="1" 
F 0 "#PWR09" H 1900 3950 50  0001 C CNN
F 1 "GND" H 1905 4027 50  0000 C CNN
F 2 "" H 1900 4200 50  0001 C CNN
F 3 "" H 1900 4200 50  0001 C CNN
	1    1900 4200
	1    0    0    -1  
$EndComp
$Comp
L power:GND #PWR?
U 1 1 5F112491
P 1600 4200
AR Path="/5DF6D601/5F112491" Ref="#PWR?"  Part="1" 
AR Path="/5F112491" Ref="#PWR03"  Part="1" 
F 0 "#PWR03" H 1600 3950 50  0001 C CNN
F 1 "GND" H 1605 4027 50  0000 C CNN
F 2 "" H 1600 4200 50  0001 C CNN
F 3 "" H 1600 4200 50  0001 C CNN
	1    1600 4200
	1    0    0    -1  
$EndComp
$Comp
L Device:R_Small R?
U 1 1 5F112484
P 1400 3900
AR Path="/5DF6D601/5F112484" Ref="R?"  Part="1" 
AR Path="/5F112484" Ref="R11"  Part="1" 
F 0 "R11" V 1204 3900 50  0000 C CNN
F 1 "1k" V 1295 3900 50  0000 C CNN
F 2 "Resistor_SMD:R_0402_1005Metric" H 1400 3900 50  0001 C CNN
F 3 "~" H 1400 3900 50  0001 C CNN
	1    1400 3900
	0    1    1    0   
$EndComp
Wire Wire Line
	900  3900 1300 3900
Wire Wire Line
	900  3500 1300 3500
$Comp
L Device:R_Small R?
U 1 1 5F11247C
P 1600 4100
AR Path="/5DF6D601/5F11247C" Ref="R?"  Part="1" 
AR Path="/5F11247C" Ref="R12"  Part="1" 
F 0 "R12" H 1659 4146 50  0000 L CNN
F 1 "10k" H 1659 4055 50  0000 L CNN
F 2 "Resistor_SMD:R_0402_1005Metric" H 1600 4100 50  0001 C CNN
F 3 "~" H 1600 4100 50  0001 C CNN
	1    1600 4100
	1    0    0    -1  
$EndComp
$Comp
L Device:R_Small R?
U 1 1 5F112476
P 1900 4100
AR Path="/5DF6D601/5F112476" Ref="R?"  Part="1" 
AR Path="/5F112476" Ref="R13"  Part="1" 
F 0 "R13" H 1959 4146 50  0000 L CNN
F 1 "10k" H 1959 4055 50  0000 L CNN
F 2 "Resistor_SMD:R_0402_1005Metric" H 1900 4100 50  0001 C CNN
F 3 "~" H 1900 4100 50  0001 C CNN
	1    1900 4100
	1    0    0    -1  
$EndComp
Wire Wire Line
	1500 3500 1600 3500
Wire Wire Line
	1600 3500 1600 4000
Wire Wire Line
	1500 3900 1900 3900
Wire Wire Line
	1900 3900 1900 4000
$Comp
L Device:C_Small C?
U 1 1 5F11246C
P 2200 4100
AR Path="/5DF6D601/5F11246C" Ref="C?"  Part="1" 
AR Path="/5F11246C" Ref="C12"  Part="1" 
F 0 "C12" H 2292 4146 50  0000 L CNN
F 1 "470p" H 2292 4055 50  0000 L CNN
F 2 "Capacitor_SMD:C_0402_1005Metric" H 2200 4100 50  0001 C CNN
F 3 "~" H 2200 4100 50  0001 C CNN
	1    2200 4100
	1    0    0    -1  
$EndComp
$Comp
L Device:C_Small C?
U 1 1 5F112466
P 2500 4100
AR Path="/5DF6D601/5F112466" Ref="C?"  Part="1" 
AR Path="/5F112466" Ref="C13"  Part="1" 
F 0 "C13" H 2592 4146 50  0000 L CNN
F 1 "470p" H 2592 4055 50  0000 L CNN
F 2 "Capacitor_SMD:C_0402_1005Metric" H 2500 4100 50  0001 C CNN
F 3 "~" H 2500 4100 50  0001 C CNN
	1    2500 4100
	1    0    0    -1  
$EndComp
Wire Wire Line
	1600 3500 2200 3500
Wire Wire Line
	2200 3500 2200 4000
Connection ~ 1600 3500
Wire Wire Line
	1900 3900 2500 3900
Wire Wire Line
	2500 3900 2500 4000
Connection ~ 1900 3900
Wire Wire Line
	2200 3500 2600 3500
Connection ~ 2200 3500
Wire Wire Line
	2500 3900 2600 3900
Connection ~ 2500 3900
Text Label 900  3900 0    50   ~ 0
AUX_IN_L
Text Label 900  3500 0    50   ~ 0
AUX_IN_R
Text Label 3000 3500 2    50   ~ 0
AI_R
Wire Wire Line
	3000 3500 2800 3500
Wire Wire Line
	2800 3900 3000 3900
Text Label 3000 3900 2    50   ~ 0
AI_L
Text Label 2000 4600 2    50   ~ 0
MIC_BIAS
Wire Wire Line
	4200 3600 5000 3600
Wire Wire Line
	1000 6000 2000 6000
Wire Wire Line
	1000 4600 2000 4600
Text Label 2000 6000 2    50   ~ 0
MIC_BIAS
Wire Wire Line
	9000 3000 8500 3000
Wire Wire Line
	10500 2800 10000 2800
Wire Wire Line
	10500 2700 10000 2700
$Comp
L 0xdec:BM83SM1 A2
U 1 1 5E00120E
P 6000 4300
F 0 "A2" H 5250 5850 50  0000 C CNN
F 1 "BM83SM1" H 6600 5850 50  0000 C CNN
F 2 "0xdec:BM83SM1" H 6000 4300 50  0001 C CNN
F 3 "http://ww1.microchip.com/downloads/en/DeviceDoc/BM83_Bluetooth_Stereo_Audio_Module_Data_Sheet_DS70005402A.pdf" H 6000 4300 50  0001 C CNN
	1    6000 4300
	1    0    0    -1  
$EndComp
Wire Wire Line
	7000 4200 7500 4200
Wire Wire Line
	7000 4100 7500 4100
Wire Wire Line
	7000 4000 7500 4000
Wire Wire Line
	7000 3900 7500 3900
Wire Wire Line
	7000 3800 7500 3800
Wire Wire Line
	7000 4400 7600 4400
Wire Wire Line
	7000 4500 7600 4500
Wire Wire Line
	7600 4400 7600 4300
Wire Wire Line
	7600 4500 7600 4700
Text GLabel 7900 5100 2    50   Input ~ 0
SYS_PWR
$Comp
L Device:LED_Small LED3
U 1 1 5F1276B9
P 7800 5100
AR Path="/5F1276B9" Ref="LED3"  Part="1" 
AR Path="/5DEB3B40/5F1276B9" Ref="LED?"  Part="1" 
AR Path="/5DEFBDA6/5F1276B9" Ref="LED?"  Part="1" 
F 0 "LED3" H 7800 5335 50  0000 C CNN
F 1 "GRN" H 7800 5244 50  0000 C CNN
F 2 "LED_SMD:LED_0603_1608Metric" V 7800 5100 50  0001 C CNN
F 3 "~" V 7800 5100 50  0001 C CNN
F 4 "White" H 7800 5100 50  0001 C CNN "Color"
	1    7800 5100
	1    0    0    -1  
$EndComp
$Comp
L Device:LED_Small LED2
U 1 1 5F0F3F58
P 7800 4700
AR Path="/5F0F3F58" Ref="LED2"  Part="1" 
AR Path="/5DEB3B40/5F0F3F58" Ref="LED?"  Part="1" 
AR Path="/5DEFBDA6/5F0F3F58" Ref="LED?"  Part="1" 
F 0 "LED2" H 7800 4935 50  0000 C CNN
F 1 "RED" H 7800 4844 50  0000 C CNN
F 2 "LED_SMD:LED_0603_1608Metric" V 7800 4700 50  0001 C CNN
F 3 "~" V 7800 4700 50  0001 C CNN
F 4 "Blue" H 7800 4700 50  0001 C CNN "Color"
	1    7800 4700
	1    0    0    -1  
$EndComp
Text GLabel 7900 4700 2    50   Input ~ 0
SYS_PWR
Wire Wire Line
	7600 4700 7700 4700
Text GLabel 7900 4300 2    50   Input ~ 0
SYS_PWR
$Comp
L Device:LED_Small LED1
U 1 1 5F0F3F51
P 7800 4300
AR Path="/5F0F3F51" Ref="LED1"  Part="1" 
AR Path="/5DEB3B40/5F0F3F51" Ref="LED?"  Part="1" 
AR Path="/5DEFBDA6/5F0F3F51" Ref="LED?"  Part="1" 
F 0 "LED1" H 7800 4535 50  0000 C CNN
F 1 "BLU" H 7800 4444 50  0000 C CNN
F 2 "LED_SMD:LED_0603_1608Metric" V 7800 4300 50  0001 C CNN
F 3 "~" V 7800 4300 50  0001 C CNN
F 4 "Red" H 7800 4300 50  0001 C CNN "Color"
	1    7800 4300
	1    0    0    -1  
$EndComp
Wire Wire Line
	7600 4300 7700 4300
Wire Wire Line
	9000 1900 8500 1900
Wire Wire Line
	9000 2000 8500 2000
Wire Wire Line
	9000 2100 8500 2100
Wire Wire Line
	9000 2200 8500 2200
Wire Wire Line
	9000 2300 8500 2300
Wire Wire Line
	9000 2400 8500 2400
Wire Wire Line
	9000 2500 8500 2500
Wire Wire Line
	9000 2600 8500 2600
Wire Wire Line
	9000 2700 8500 2700
Text Label 8500 1900 0    50   ~ 0
FWD
Text Label 8500 2000 0    50   ~ 0
PLAY
Text Label 8500 2100 0    50   ~ 0
REV
Text Label 8500 2300 0    50   ~ 0
VOL-
Wire Wire Line
	10500 2600 10000 2600
Wire Wire Line
	10500 2500 10000 2500
Wire Wire Line
	10500 2400 10000 2400
Wire Wire Line
	10500 2300 10000 2300
Wire Wire Line
	10500 2200 10000 2200
Text Label 8500 2200 0    50   ~ 0
VOL+
$Comp
L Device:C_Small C6
U 1 1 5F18D779
P 4200 3100
AR Path="/5F18D779" Ref="C6"  Part="1" 
AR Path="/5DEFBDA6/5F18D779" Ref="C?"  Part="1" 
F 0 "C6" H 4292 3146 50  0000 L CNN
F 1 "15p" H 4292 3055 50  0000 L CNN
F 2 "Capacitor_SMD:C_0402_1005Metric" H 4200 3100 50  0001 C CNN
F 3 "~" H 4200 3100 50  0001 C CNN
	1    4200 3100
	1    0    0    -1  
$EndComp
$Comp
L power:GND #PWR012
U 1 1 5F18D77F
P 4200 3200
AR Path="/5F18D77F" Ref="#PWR012"  Part="1" 
AR Path="/5DEFBDA6/5F18D77F" Ref="#PWR?"  Part="1" 
F 0 "#PWR012" H 4200 2950 50  0001 C CNN
F 1 "GND" H 4205 3027 50  0000 C CNN
F 2 "" H 4200 3200 50  0001 C CNN
F 3 "" H 4200 3200 50  0001 C CNN
	1    4200 3200
	1    0    0    -1  
$EndComp
Wire Wire Line
	4200 2900 5000 2900
Text GLabel 3700 5700 0    50   Input ~ 0
SYS_PWR
$Comp
L Device:C_Small C9
U 1 1 5F1A8A9B
P 4200 5200
AR Path="/5F1A8A9B" Ref="C9"  Part="1" 
AR Path="/5DEFBDA6/5F1A8A9B" Ref="C?"  Part="1" 
F 0 "C9" H 4292 5246 50  0000 L CNN
F 1 "15p" H 4292 5155 50  0000 L CNN
F 2 "Capacitor_SMD:C_0402_1005Metric" H 4200 5200 50  0001 C CNN
F 3 "~" H 4200 5200 50  0001 C CNN
	1    4200 5200
	1    0    0    -1  
$EndComp
$Comp
L power:GND #PWR014
U 1 1 5F1A8AA1
P 4200 5300
AR Path="/5F1A8AA1" Ref="#PWR014"  Part="1" 
AR Path="/5DEFBDA6/5F1A8AA1" Ref="#PWR?"  Part="1" 
F 0 "#PWR014" H 4200 5050 50  0001 C CNN
F 1 "GND" H 4205 5127 50  0000 C CNN
F 2 "" H 4200 5300 50  0001 C CNN
F 3 "" H 4200 5300 50  0001 C CNN
	1    4200 5300
	1    0    0    -1  
$EndComp
$Comp
L Switch:SW_Push SW2
U 1 1 5F1A8AA8
P 3900 5700
AR Path="/5F1A8AA8" Ref="SW2"  Part="1" 
AR Path="/5DEFBDA6/5F1A8AA8" Ref="SW?"  Part="1" 
F 0 "SW2" H 3900 5985 50  0000 C CNN
F 1 "MFB" H 3900 5894 50  0000 C CNN
F 2 "0xdec:SW_SPST_Alps_SKRP" H 3900 5900 50  0001 C CNN
F 3 "~" H 3900 5900 50  0001 C CNN
	1    3900 5700
	1    0    0    -1  
$EndComp
Text Label 8500 2400 0    50   ~ 0
WS
Text Label 8500 2500 0    50   ~ 0
SCK
Text Label 8500 2700 0    50   ~ 0
SDIN
Text Label 8500 2600 0    50   ~ 0
SDOUT
Text Label 8500 3000 0    50   ~ 0
DSP_RST
Wire Wire Line
	5200 900  5300 900 
$Comp
L power:GND #PWR?
U 1 1 5F26B56F
P 5300 1300
AR Path="/5D254E55/5F26B56F" Ref="#PWR?"  Part="1" 
AR Path="/5F26B56F" Ref="#PWR0108"  Part="1" 
AR Path="/5C98F9BA/5F26B56F" Ref="#PWR?"  Part="1" 
F 0 "#PWR0108" H 5300 1050 50  0001 C CNN
F 1 "GND" H 5305 1127 50  0000 C CNN
F 2 "" H 5300 1300 50  0001 C CNN
F 3 "" H 5300 1300 50  0001 C CNN
	1    5300 1300
	1    0    0    -1  
$EndComp
Wire Wire Line
	5300 1300 5300 1200
Wire Wire Line
	5300 1000 5300 900 
Connection ~ 5300 900 
Wire Wire Line
	5300 900  5300 800 
$Comp
L Device:C_Small C?
U 1 1 5F26B579
P 5300 1100
AR Path="/5D254E55/5F26B579" Ref="C?"  Part="1" 
AR Path="/5F26B579" Ref="C3"  Part="1" 
AR Path="/5C98F9BA/5F26B579" Ref="C?"  Part="1" 
F 0 "C3" H 5392 1146 50  0000 L CNN
F 1 "10u" H 5392 1055 50  0000 L CNN
F 2 "Capacitor_SMD:C_0603_1608Metric" H 5300 1100 50  0001 C CNN
F 3 "~" H 5300 1100 50  0001 C CNN
	1    5300 1100
	1    0    0    -1  
$EndComp
$Comp
L power:GND #PWR?
U 1 1 5F26B57F
P 4900 1300
AR Path="/5D254E55/5F26B57F" Ref="#PWR?"  Part="1" 
AR Path="/5F26B57F" Ref="#PWR0109"  Part="1" 
AR Path="/5C98F9BA/5F26B57F" Ref="#PWR?"  Part="1" 
F 0 "#PWR0109" H 4900 1050 50  0001 C CNN
F 1 "GND" H 4905 1127 50  0000 C CNN
F 2 "" H 4900 1300 50  0001 C CNN
F 3 "" H 4900 1300 50  0001 C CNN
	1    4900 1300
	1    0    0    -1  
$EndComp
Wire Wire Line
	4600 900  4500 900 
Wire Wire Line
	4500 900  4500 800 
$Comp
L power:VDD #PWR?
U 1 1 5F26B587
P 4500 800
AR Path="/5D254E55/5F26B587" Ref="#PWR?"  Part="1" 
AR Path="/5F26B587" Ref="#PWR0110"  Part="1" 
AR Path="/5C98F9BA/5F26B587" Ref="#PWR?"  Part="1" 
F 0 "#PWR0110" H 4500 650 50  0001 C CNN
F 1 "VDD" H 4517 973 50  0000 C CNN
F 2 "" H 4500 800 50  0001 C CNN
F 3 "" H 4500 800 50  0001 C CNN
	1    4500 800 
	1    0    0    -1  
$EndComp
Wire Wire Line
	4600 1000 4300 1000
$Comp
L Device:R_Small R?
U 1 1 5F26B58E
P 4300 900
AR Path="/5D254E55/5F26B58E" Ref="R?"  Part="1" 
AR Path="/5F26B58E" Ref="R5"  Part="1" 
AR Path="/5C98F9BA/5F26B58E" Ref="R?"  Part="1" 
F 0 "R5" H 4359 946 50  0000 L CNN
F 1 "100k" H 4359 855 50  0000 L CNN
F 2 "Resistor_SMD:R_0402_1005Metric" H 4300 900 50  0001 C CNN
F 3 "~" H 4300 900 50  0001 C CNN
	1    4300 900 
	1    0    0    -1  
$EndComp
$Comp
L power:+3V3 #PWR?
U 1 1 5F26B594
P 5300 800
AR Path="/5D254E55/5F26B594" Ref="#PWR?"  Part="1" 
AR Path="/5F26B594" Ref="#PWR0111"  Part="1" 
AR Path="/5C98F9BA/5F26B594" Ref="#PWR?"  Part="1" 
F 0 "#PWR0111" H 5300 650 50  0001 C CNN
F 1 "+3V3" H 5315 973 50  0000 C CNN
F 2 "" H 5300 800 50  0001 C CNN
F 3 "" H 5300 800 50  0001 C CNN
	1    5300 800 
	1    0    0    -1  
$EndComp
$Comp
L Regulator_Linear:AP2112K-3.3 U?
U 1 1 5F26B59A
P 4900 1000
AR Path="/5D254E55/5F26B59A" Ref="U?"  Part="1" 
AR Path="/5F26B59A" Ref="U2"  Part="1" 
AR Path="/5C98F9BA/5F26B59A" Ref="U?"  Part="1" 
F 0 "U2" H 4900 1342 50  0000 C CNN
F 1 "AP2112K-3.3" H 4900 1251 50  0000 C CNN
F 2 "Package_TO_SOT_SMD:SOT-23-5" H 4900 1325 50  0001 C CNN
F 3 "https://www.diodes.com/assets/Datasheets/AP2112.pdf" H 4900 1100 50  0001 C CNN
	1    4900 1000
	1    0    0    -1  
$EndComp
$Comp
L power:VDD #PWR?
U 1 1 5F26B5A0
P 4300 800
AR Path="/5D254E55/5F26B5A0" Ref="#PWR?"  Part="1" 
AR Path="/5F26B5A0" Ref="#PWR0112"  Part="1" 
AR Path="/5C98F9BA/5F26B5A0" Ref="#PWR?"  Part="1" 
F 0 "#PWR0112" H 4300 650 50  0001 C CNN
F 1 "VDD" H 4317 973 50  0000 C CNN
F 2 "" H 4300 800 50  0001 C CNN
F 3 "" H 4300 800 50  0001 C CNN
	1    4300 800 
	1    0    0    -1  
$EndComp
Connection ~ 4300 1000
Wire Wire Line
	4300 1000 4100 1000
Text Label 4100 1000 0    50   ~ 0
EN
$Comp
L power:VBUS #PWR?
U 1 1 5F27609B
P 3000 800
AR Path="/5D254E55/5F27609B" Ref="#PWR?"  Part="1" 
AR Path="/5F27609B" Ref="#PWR0113"  Part="1" 
AR Path="/5C98F9BA/5F27609B" Ref="#PWR?"  Part="1" 
F 0 "#PWR0113" H 3000 650 50  0001 C CNN
F 1 "VBUS" H 3015 973 50  0000 C CNN
F 2 "" H 3000 800 50  0001 C CNN
F 3 "" H 3000 800 50  0001 C CNN
	1    3000 800 
	1    0    0    -1  
$EndComp
$Comp
L Device:D_Schottky_Small D?
U 1 1 5F2760A1
P 3200 1400
AR Path="/5D254E55/5F2760A1" Ref="D?"  Part="1" 
AR Path="/5F2760A1" Ref="D1"  Part="1" 
AR Path="/5C98F9BA/5F2760A1" Ref="D?"  Part="1" 
F 0 "D1" H 3200 1195 50  0000 C CNN
F 1 "MBR120ESF" H 3200 1286 50  0000 C CNN
F 2 "Diode_SMD:D_SOD-323" V 3200 1400 50  0001 C CNN
F 3 "~" V 3200 1400 50  0001 C CNN
	1    3200 1400
	-1   0    0    1   
$EndComp
$Comp
L Device:Q_PMOS_GSD Q?
U 1 1 5F2760A7
P 3300 1000
AR Path="/5D254E55/5F2760A7" Ref="Q?"  Part="1" 
AR Path="/5F2760A7" Ref="Q1"  Part="1" 
AR Path="/5C98F9BA/5F2760A7" Ref="Q?"  Part="1" 
F 0 "Q1" H 3506 1046 50  0000 L CNN
F 1 "DMG2305" H 3506 955 50  0000 L CNN
F 2 "Package_TO_SOT_SMD:SOT-23" H 3500 1100 50  0001 C CNN
F 3 "~" H 3300 1000 50  0001 C CNN
	1    3300 1000
	1    0    0    -1  
$EndComp
Wire Wire Line
	3100 1000 3000 1000
Wire Wire Line
	3000 1000 3000 800 
Wire Wire Line
	3300 1400 3400 1400
Wire Wire Line
	3100 1400 3000 1400
Wire Wire Line
	3000 1400 3000 1000
Connection ~ 3000 1000
$Comp
L Device:C_Small C?
U 1 1 5F2760B3
P 3400 1600
AR Path="/5D254E55/5F2760B3" Ref="C?"  Part="1" 
AR Path="/5F2760B3" Ref="C2"  Part="1" 
AR Path="/5C98F9BA/5F2760B3" Ref="C?"  Part="1" 
F 0 "C2" H 3492 1646 50  0000 L CNN
F 1 "10u" H 3492 1555 50  0000 L CNN
F 2 "Capacitor_SMD:C_0603_1608Metric" H 3400 1600 50  0001 C CNN
F 3 "~" H 3400 1600 50  0001 C CNN
	1    3400 1600
	1    0    0    -1  
$EndComp
$Comp
L power:GND #PWR?
U 1 1 5F2760B9
P 3400 1800
AR Path="/5D254E55/5F2760B9" Ref="#PWR?"  Part="1" 
AR Path="/5F2760B9" Ref="#PWR0114"  Part="1" 
AR Path="/5C98F9BA/5F2760B9" Ref="#PWR?"  Part="1" 
F 0 "#PWR0114" H 3400 1550 50  0001 C CNN
F 1 "GND" H 3405 1627 50  0000 C CNN
F 2 "" H 3400 1800 50  0001 C CNN
F 3 "" H 3400 1800 50  0001 C CNN
	1    3400 1800
	1    0    0    -1  
$EndComp
Wire Wire Line
	3400 1800 3400 1700
Wire Wire Line
	3400 1500 3400 1400
Connection ~ 3400 1400
$Comp
L Device:R_Small R?
U 1 1 5F2760C2
P 3000 1600
AR Path="/5D254E55/5F2760C2" Ref="R?"  Part="1" 
AR Path="/5F2760C2" Ref="R4"  Part="1" 
AR Path="/5C98F9BA/5F2760C2" Ref="R?"  Part="1" 
F 0 "R4" H 3059 1646 50  0000 L CNN
F 1 "100k" H 3059 1555 50  0000 L CNN
F 2 "Resistor_SMD:R_0402_1005Metric" H 3000 1600 50  0001 C CNN
F 3 "~" H 3000 1600 50  0001 C CNN
	1    3000 1600
	1    0    0    -1  
$EndComp
Wire Wire Line
	3000 1400 3000 1500
Connection ~ 3000 1400
$Comp
L power:GND #PWR?
U 1 1 5F2760CA
P 3000 1800
AR Path="/5D254E55/5F2760CA" Ref="#PWR?"  Part="1" 
AR Path="/5F2760CA" Ref="#PWR0115"  Part="1" 
AR Path="/5C98F9BA/5F2760CA" Ref="#PWR?"  Part="1" 
F 0 "#PWR0115" H 3000 1550 50  0001 C CNN
F 1 "GND" H 3005 1627 50  0000 C CNN
F 2 "" H 3000 1800 50  0001 C CNN
F 3 "" H 3000 1800 50  0001 C CNN
	1    3000 1800
	1    0    0    -1  
$EndComp
Wire Wire Line
	3000 1800 3000 1700
Wire Wire Line
	3400 1200 3400 1300
Wire Wire Line
	3500 1300 3400 1300
Connection ~ 3400 1300
Wire Wire Line
	3400 1300 3400 1400
$Comp
L 0xdec:VBAT #PWR?
U 1 1 5F2760DB
P 3400 800
AR Path="/5C98F9BA/5F2760DB" Ref="#PWR?"  Part="1" 
AR Path="/5F2760DB" Ref="#PWR0117"  Part="1" 
F 0 "#PWR0117" H 3400 650 50  0001 C CNN
F 1 "VBAT" H 3415 973 50  0000 C CNN
F 2 "" H 3400 800 50  0001 C CNN
F 3 "" H 3400 800 50  0001 C CNN
	1    3400 800 
	1    0    0    -1  
$EndComp
$Comp
L 0xdec:VBAT #PWR0118
U 1 1 5F295F11
P 5900 2600
F 0 "#PWR0118" H 5900 2450 50  0001 C CNN
F 1 "VBAT" H 5915 2773 50  0000 C CNN
F 2 "" H 5900 2600 50  0001 C CNN
F 3 "" H 5900 2600 50  0001 C CNN
	1    5900 2600
	1    0    0    -1  
$EndComp
$Comp
L power:+3V3 #PWR0119
U 1 1 5F29787D
P 6300 2600
F 0 "#PWR0119" H 6300 2450 50  0001 C CNN
F 1 "+3V3" H 6315 2773 50  0000 C CNN
F 2 "" H 6300 2600 50  0001 C CNN
F 3 "" H 6300 2600 50  0001 C CNN
	1    6300 2600
	1    0    0    -1  
$EndComp
$Comp
L power:+3V3 #PWR0120
U 1 1 5F29F976
P 7500 2600
F 0 "#PWR0120" H 7500 2450 50  0001 C CNN
F 1 "+3V3" H 7515 2773 50  0000 C CNN
F 2 "" H 7500 2600 50  0001 C CNN
F 3 "" H 7500 2600 50  0001 C CNN
	1    7500 2600
	1    0    0    -1  
$EndComp
Wire Wire Line
	7000 5300 7500 5300
Wire Wire Line
	7000 5100 7700 5100
NoConn ~ 9000 1700
Text Label 10500 2700 2    50   ~ 0
CTS
Text Label 10500 2800 2    50   ~ 0
RTS
Text Label 10500 2600 2    50   ~ 0
AUX_IN_DET
Text Label 10500 2500 2    50   ~ 0
P2_6
Text Label 7500 5400 2    50   ~ 0
P2_3
Text Label 10500 2400 2    50   ~ 0
P2_3
Text Label 10500 2300 2    50   ~ 0
P1_6
Text Label 10500 2200 2    50   ~ 0
P0_7
$Comp
L Device:R_Small R?
U 1 1 5F330533
P 4200 2700
AR Path="/5DF6D601/5F330533" Ref="R?"  Part="1" 
AR Path="/5F330533" Ref="R6"  Part="1" 
F 0 "R6" H 4259 2746 50  0000 L CNN
F 1 "4k7" H 4259 2655 50  0000 L CNN
F 2 "Resistor_SMD:R_0402_1005Metric" H 4200 2700 50  0001 C CNN
F 3 "~" H 4200 2700 50  0001 C CNN
	1    4200 2700
	1    0    0    -1  
$EndComp
$Comp
L power:+3V3 #PWR0122
U 1 1 5F330F15
P 4200 2600
F 0 "#PWR0122" H 4200 2450 50  0001 C CNN
F 1 "+3V3" H 4215 2773 50  0000 C CNN
F 2 "" H 4200 2600 50  0001 C CNN
F 3 "" H 4200 2600 50  0001 C CNN
	1    4200 2600
	1    0    0    -1  
$EndComp
Wire Wire Line
	4200 2900 4200 2800
Wire Wire Line
	4200 3000 4200 2900
Connection ~ 4200 2900
Wire Wire Line
	4200 4500 4200 4400
Connection ~ 4200 4400
Wire Wire Line
	4200 4400 5000 4400
Wire Wire Line
	4200 3700 4200 3600
Wire Wire Line
	4200 5100 4200 5000
Wire Wire Line
	4200 5000 5000 5000
$Comp
L power:VDD #PWR?
U 1 1 5F2760D5
P 3500 1300
AR Path="/5D254E55/5F2760D5" Ref="#PWR?"  Part="1" 
AR Path="/5F2760D5" Ref="#PWR0116"  Part="1" 
AR Path="/5C98F9BA/5F2760D5" Ref="#PWR?"  Part="1" 
F 0 "#PWR0116" H 3500 1150 50  0001 C CNN
F 1 "VDD" V 3517 1428 50  0000 L CNN
F 2 "" H 3500 1300 50  0001 C CNN
F 3 "" H 3500 1300 50  0001 C CNN
	1    3500 1300
	0    1    -1   0   
$EndComp
Text Label 4300 5700 2    50   ~ 0
MFB
Wire Wire Line
	4300 5700 4100 5700
Connection ~ 3800 4400
Wire Wire Line
	3800 4400 3800 4300
Wire Wire Line
	3800 4500 3800 4400
Wire Wire Line
	3800 4400 4200 4400
$Comp
L power:+3V3 #PWR0121
U 1 1 5F2A73C1
P 3800 4100
F 0 "#PWR0121" H 3800 3950 50  0001 C CNN
F 1 "+3V3" H 3815 4273 50  0000 C CNN
F 2 "" H 3800 4100 50  0001 C CNN
F 3 "" H 3800 4100 50  0001 C CNN
	1    3800 4100
	1    0    0    -1  
$EndComp
$Comp
L Device:Thermistor_NTC TH1
U 1 1 5E1DA86E
P 3800 4850
F 0 "TH1" H 3898 4896 50  0000 L CNN
F 1 "100k" H 3898 4805 50  0000 L CNN
F 2 "Resistor_SMD:R_0402_1005Metric" H 3800 4900 50  0001 C CNN
F 3 "~" H 3800 4900 50  0001 C CNN
	1    3800 4850
	1    0    0    -1  
$EndComp
$Comp
L Device:R_Small R8
U 1 1 5E1DDB31
P 3800 4600
F 0 "R8" H 3859 4646 50  0000 L CNN
F 1 "86k6" H 3859 4555 50  0000 L CNN
F 2 "Resistor_SMD:R_0402_1005Metric" H 3800 4600 50  0001 C CNN
F 3 "~" H 3800 4600 50  0001 C CNN
	1    3800 4600
	1    0    0    -1  
$EndComp
$Comp
L power:GND #PWR04
U 1 1 5E1E6F5E
P 3800 5000
F 0 "#PWR04" H 3800 4750 50  0001 C CNN
F 1 "GND" H 3805 4827 50  0000 C CNN
F 2 "" H 3800 5000 50  0001 C CNN
F 3 "" H 3800 5000 50  0001 C CNN
	1    3800 5000
	1    0    0    -1  
$EndComp
$Comp
L Device:R_Small R7
U 1 1 5E2014B1
P 3800 4200
F 0 "R7" H 3859 4246 50  0000 L CNN
F 1 "1M" H 3859 4155 50  0000 L CNN
F 2 "Resistor_SMD:R_0402_1005Metric" H 3800 4200 50  0001 C CNN
F 3 "~" H 3800 4200 50  0001 C CNN
	1    3800 4200
	1    0    0    -1  
$EndComp
$Comp
L Device:C_Small C?
U 1 1 5F0A5FC2
P 1600 5400
AR Path="/5DF6D601/5F0A5FC2" Ref="C?"  Part="1" 
AR Path="/5F0A5FC2" Ref="C15"  Part="1" 
F 0 "C15" V 1371 5400 50  0000 C CNN
F 1 "47n" V 1462 5400 50  0000 C CNN
F 2 "Capacitor_SMD:C_0402_1005Metric" H 1600 5400 50  0001 C CNN
F 3 "~" H 1600 5400 50  0001 C CNN
	1    1600 5400
	0    1    1    0   
$EndComp
$Comp
L Device:R_Small R?
U 1 1 5F11248A
P 1400 3500
AR Path="/5DF6D601/5F11248A" Ref="R?"  Part="1" 
AR Path="/5F11248A" Ref="R10"  Part="1" 
F 0 "R10" V 1204 3500 50  0000 C CNN
F 1 "1k" V 1295 3500 50  0000 C CNN
F 2 "Resistor_SMD:R_0402_1005Metric" H 1400 3500 50  0001 C CNN
F 3 "~" H 1400 3500 50  0001 C CNN
	1    1400 3500
	0    1    1    0   
$EndComp
$Comp
L Device:C_Small C?
U 1 1 5F0E825A
P 2700 3500
AR Path="/5DF6D601/5F0E825A" Ref="C?"  Part="1" 
AR Path="/5F0E825A" Ref="C10"  Part="1" 
F 0 "C10" V 2471 3500 50  0000 C CNN
F 1 "10u" V 2562 3500 50  0000 C CNN
F 2 "Capacitor_SMD:C_0603_1608Metric" H 2700 3500 50  0001 C CNN
F 3 "~" H 2700 3500 50  0001 C CNN
	1    2700 3500
	0    1    1    0   
$EndComp
$Comp
L Device:C_Small C?
U 1 1 5F0EB01D
P 2700 3900
AR Path="/5DF6D601/5F0EB01D" Ref="C?"  Part="1" 
AR Path="/5F0EB01D" Ref="C11"  Part="1" 
F 0 "C11" V 2471 3900 50  0000 C CNN
F 1 "10u" V 2562 3900 50  0000 C CNN
F 2 "Capacitor_SMD:C_0603_1608Metric" H 2700 3900 50  0001 C CNN
F 3 "~" H 2700 3900 50  0001 C CNN
	1    2700 3900
	0    1    1    0   
$EndComp
$Comp
L power:GND #PWR0123
U 1 1 5F102E2B
P 3600 3000
AR Path="/5F102E2B" Ref="#PWR0123"  Part="1" 
AR Path="/5DEFBDA6/5F102E2B" Ref="#PWR?"  Part="1" 
F 0 "#PWR0123" H 3600 2750 50  0001 C CNN
F 1 "GND" H 3605 2827 50  0000 C CNN
F 2 "" H 3600 3000 50  0001 C CNN
F 3 "" H 3600 3000 50  0001 C CNN
	1    3600 3000
	1    0    0    -1  
$EndComp
Wire Wire Line
	3700 2900 3600 2900
Wire Wire Line
	3600 2900 3600 3000
Wire Wire Line
	7000 3500 7600 3500
$Comp
L Device:R_Small R?
U 1 1 5F13CE44
P 7700 3500
AR Path="/5DF6D601/5F13CE44" Ref="R?"  Part="1" 
AR Path="/5F13CE44" Ref="R9"  Part="1" 
F 0 "R9" V 7504 3500 50  0000 C CNN
F 1 "0" V 7595 3500 50  0000 C CNN
F 2 "Resistor_SMD:R_0402_1005Metric" H 7700 3500 50  0001 C CNN
F 3 "~" H 7700 3500 50  0001 C CNN
	1    7700 3500
	0    1    1    0   
$EndComp
$Comp
L power:GND #PWR015
U 1 1 5F1696EC
P 7800 3500
F 0 "#PWR015" H 7800 3250 50  0001 C CNN
F 1 "GND" V 7805 3372 50  0000 R CNN
F 2 "" H 7800 3500 50  0001 C CNN
F 3 "" H 7800 3500 50  0001 C CNN
	1    7800 3500
	0    -1   -1   0   
$EndComp
Text Label 10500 4300 2    50   ~ 0
MIC2_IN_P
Wire Wire Line
	10000 4300 10500 4300
Wire Wire Line
	10000 4600 10500 4600
Text Label 10500 4600 2    50   ~ 0
DMIC_CLK
Wire Wire Line
	9500 4300 9000 4300
Text Label 10500 4500 2    50   ~ 0
DMIC_R
Text Label 10500 4400 2    50   ~ 0
DMIC_L
Wire Wire Line
	10500 4500 10000 4500
Wire Wire Line
	10500 4400 10000 4400
Text Label 1700 1100 0    50   ~ 0
CC1
Text Label 1700 1200 0    50   ~ 0
CC2
Text Label 1700 1400 0    50   ~ 0
D-
Wire Wire Line
	2600 1400 2600 2400
Wire Wire Line
	1700 1500 1800 1500
Wire Wire Line
	1800 1500 1800 1400
Connection ~ 1800 1400
Wire Wire Line
	1800 1400 2600 1400
Wire Wire Line
	4200 2900 4100 2900
$Comp
L Switch:SW_Push SW1
U 1 1 5F0F28DA
P 3900 2900
AR Path="/5F0F28DA" Ref="SW1"  Part="1" 
AR Path="/5DEFBDA6/5F0F28DA" Ref="SW?"  Part="1" 
F 0 "SW1" H 3900 3185 50  0000 C CNN
F 1 "RST" H 3900 3094 50  0000 C CNN
F 2 "0xdec:SW_SPST_Alps_SKRP" H 3900 3100 50  0001 C CNN
F 3 "~" H 3900 3100 50  0001 C CNN
	1    3900 2900
	1    0    0    -1  
$EndComp
$Comp
L Connector_Generic:Conn_02x05_Odd_Even J3
U 1 1 5F44A403
P 9700 4500
F 0 "J3" H 9750 4917 50  0000 C CNN
F 1 "Audio" H 9750 4826 50  0000 C CNN
F 2 "Connector_PinHeader_2.54mm:PinHeader_2x05_P2.54mm_Vertical_SMD" H 9700 4500 50  0001 C CNN
F 3 "~" H 9700 4500 50  0001 C CNN
	1    9700 4500
	1    0    0    -1  
$EndComp
$Comp
L power:GND #PWR0124
U 1 1 5F1CBDBE
P 10100 4800
F 0 "#PWR0124" H 10100 4550 50  0001 C CNN
F 1 "GND" H 10105 4627 50  0000 C CNN
F 2 "" H 10100 4800 50  0001 C CNN
F 3 "" H 10100 4800 50  0001 C CNN
	1    10100 4800
	1    0    0    -1  
$EndComp
Wire Wire Line
	9000 4700 9500 4700
Wire Wire Line
	9000 4600 9500 4600
Text Label 9000 4400 0    50   ~ 0
AUX_IN_L
Text Label 9000 4500 0    50   ~ 0
AUX_IN_R
Text Label 9000 4600 0    50   ~ 0
AOHP_L
Wire Wire Line
	9000 4400 9500 4400
Wire Wire Line
	9000 4500 9500 4500
Text Label 1650 3900 0    50   ~ 0
AIC_L
Text Label 1650 3500 0    50   ~ 0
AIC_R
Text Label 9000 4700 0    50   ~ 0
AOHP_R
Text Label 9000 4300 0    50   ~ 0
MIC1_IN_P
Wire Wire Line
	10000 4700 10100 4700
Wire Wire Line
	10100 4700 10100 4800
$Comp
L Graphic:Logo_Open_Hardware_Small #LOGO1
U 1 1 5F6B0A35
P 10900 6850
F 0 "#LOGO1" H 10900 7125 50  0001 C CNN
F 1 "Logo_Open_Hardware_Small" H 10900 6625 50  0001 C CNN
F 2 "" H 10900 6850 50  0001 C CNN
F 3 "~" H 10900 6850 50  0001 C CNN
	1    10900 6850
	1    0    0    -1  
$EndComp
$EndSCHEMATC
