EESchema Schematic File Version 4
EELAYER 30 0
EELAYER END
$Descr A4 11693 8268
encoding utf-8
Sheet 3 3
Title ""
Date ""
Rev ""
Comp ""
Comment1 ""
Comment2 ""
Comment3 ""
Comment4 ""
$EndDescr
$Comp
L Switch:SW_Push SW?
U 1 1 5DEB8FB8
P 5000 4000
AR Path="/5DEB8FB8" Ref="SW?"  Part="1" 
AR Path="/5DEB3B40/5DEB8FB8" Ref="SW?"  Part="1" 
AR Path="/5DEFBDA6/5DEB8FB8" Ref="SW3"  Part="1" 
F 0 "SW3" H 5000 4285 50  0000 C CNN
F 1 "REV" H 5000 4194 50  0000 C CNN
F 2 "Button_Switch_SMD:SW_Push_SPST_NO_Alps_SKRK" H 5000 4200 50  0001 C CNN
F 3 "~" H 5000 4200 50  0001 C CNN
	1    5000 4000
	1    0    0    -1  
$EndComp
$Comp
L power:GND #PWR?
U 1 1 5DEB8FC1
P 4800 4300
AR Path="/5DEB8FC1" Ref="#PWR?"  Part="1" 
AR Path="/5DEB3B40/5DEB8FC1" Ref="#PWR?"  Part="1" 
AR Path="/5DEFBDA6/5DEB8FC1" Ref="#PWR0119"  Part="1" 
F 0 "#PWR0119" H 4800 4050 50  0001 C CNN
F 1 "GND" H 4805 4127 50  0000 C CNN
F 2 "" H 4800 4300 50  0001 C CNN
F 3 "" H 4800 4300 50  0001 C CNN
	1    4800 4300
	1    0    0    -1  
$EndComp
$Comp
L Device:C_Small C?
U 1 1 5DEB8FC7
P 4800 4200
AR Path="/5DEB8FC7" Ref="C?"  Part="1" 
AR Path="/5DEB3B40/5DEB8FC7" Ref="C?"  Part="1" 
AR Path="/5DEFBDA6/5DEB8FC7" Ref="C9"  Part="1" 
F 0 "C9" H 4892 4246 50  0000 L CNN
F 1 "15p" H 4892 4155 50  0000 L CNN
F 2 "Capacitor_SMD:C_0402_1005Metric" H 4800 4200 50  0001 C CNN
F 3 "~" H 4800 4200 50  0001 C CNN
	1    4800 4200
	1    0    0    -1  
$EndComp
$Comp
L power:GND #PWR?
U 1 1 5DEB8FCE
P 5200 4300
AR Path="/5DEB8FCE" Ref="#PWR?"  Part="1" 
AR Path="/5DEB3B40/5DEB8FCE" Ref="#PWR?"  Part="1" 
AR Path="/5DEFBDA6/5DEB8FCE" Ref="#PWR0120"  Part="1" 
F 0 "#PWR0120" H 5200 4050 50  0001 C CNN
F 1 "GND" H 5205 4127 50  0000 C CNN
F 2 "" H 5200 4300 50  0001 C CNN
F 3 "" H 5200 4300 50  0001 C CNN
	1    5200 4300
	1    0    0    -1  
$EndComp
Wire Wire Line
	4700 4000 4800 4000
Wire Wire Line
	5200 4000 5200 4300
Wire Wire Line
	4800 4100 4800 4000
Connection ~ 4800 4000
$Comp
L Switch:SW_Push SW?
U 1 1 5DEBE864
P 6000 4000
AR Path="/5DEBE864" Ref="SW?"  Part="1" 
AR Path="/5DEB3B40/5DEBE864" Ref="SW?"  Part="1" 
AR Path="/5DEFBDA6/5DEBE864" Ref="SW5"  Part="1" 
F 0 "SW5" H 6000 4285 50  0000 C CNN
F 1 "PLAY/PAUSE" H 6000 4194 50  0000 C CNN
F 2 "Button_Switch_SMD:SW_Push_SPST_NO_Alps_SKRK" H 6000 4200 50  0001 C CNN
F 3 "~" H 6000 4200 50  0001 C CNN
	1    6000 4000
	1    0    0    -1  
$EndComp
$Comp
L power:GND #PWR?
U 1 1 5DEBE86E
P 5800 4300
AR Path="/5DEBE86E" Ref="#PWR?"  Part="1" 
AR Path="/5DEB3B40/5DEBE86E" Ref="#PWR?"  Part="1" 
AR Path="/5DEFBDA6/5DEBE86E" Ref="#PWR0121"  Part="1" 
F 0 "#PWR0121" H 5800 4050 50  0001 C CNN
F 1 "GND" H 5805 4127 50  0000 C CNN
F 2 "" H 5800 4300 50  0001 C CNN
F 3 "" H 5800 4300 50  0001 C CNN
	1    5800 4300
	1    0    0    -1  
$EndComp
$Comp
L Device:C_Small C?
U 1 1 5DEBE878
P 5800 4200
AR Path="/5DEBE878" Ref="C?"  Part="1" 
AR Path="/5DEB3B40/5DEBE878" Ref="C?"  Part="1" 
AR Path="/5DEFBDA6/5DEBE878" Ref="C11"  Part="1" 
F 0 "C11" H 5892 4246 50  0000 L CNN
F 1 "15p" H 5892 4155 50  0000 L CNN
F 2 "Capacitor_SMD:C_0402_1005Metric" H 5800 4200 50  0001 C CNN
F 3 "~" H 5800 4200 50  0001 C CNN
	1    5800 4200
	1    0    0    -1  
$EndComp
$Comp
L power:GND #PWR?
U 1 1 5DEBE882
P 6200 4300
AR Path="/5DEBE882" Ref="#PWR?"  Part="1" 
AR Path="/5DEB3B40/5DEBE882" Ref="#PWR?"  Part="1" 
AR Path="/5DEFBDA6/5DEBE882" Ref="#PWR0122"  Part="1" 
F 0 "#PWR0122" H 6200 4050 50  0001 C CNN
F 1 "GND" H 6205 4127 50  0000 C CNN
F 2 "" H 6200 4300 50  0001 C CNN
F 3 "" H 6200 4300 50  0001 C CNN
	1    6200 4300
	1    0    0    -1  
$EndComp
Wire Wire Line
	5700 4000 5800 4000
Wire Wire Line
	6200 4000 6200 4300
Wire Wire Line
	5800 4100 5800 4000
Connection ~ 5800 4000
$Comp
L Switch:SW_Push SW?
U 1 1 5DEC06E2
P 7000 4000
AR Path="/5DEC06E2" Ref="SW?"  Part="1" 
AR Path="/5DEB3B40/5DEC06E2" Ref="SW?"  Part="1" 
AR Path="/5DEFBDA6/5DEC06E2" Ref="SW7"  Part="1" 
F 0 "SW7" H 7000 4285 50  0000 C CNN
F 1 "FWD" H 7000 4194 50  0000 C CNN
F 2 "Button_Switch_SMD:SW_Push_SPST_NO_Alps_SKRK" H 7000 4200 50  0001 C CNN
F 3 "~" H 7000 4200 50  0001 C CNN
	1    7000 4000
	1    0    0    -1  
$EndComp
$Comp
L power:GND #PWR?
U 1 1 5DEC06EC
P 6800 4300
AR Path="/5DEC06EC" Ref="#PWR?"  Part="1" 
AR Path="/5DEB3B40/5DEC06EC" Ref="#PWR?"  Part="1" 
AR Path="/5DEFBDA6/5DEC06EC" Ref="#PWR0123"  Part="1" 
F 0 "#PWR0123" H 6800 4050 50  0001 C CNN
F 1 "GND" H 6805 4127 50  0000 C CNN
F 2 "" H 6800 4300 50  0001 C CNN
F 3 "" H 6800 4300 50  0001 C CNN
	1    6800 4300
	1    0    0    -1  
$EndComp
$Comp
L Device:C_Small C?
U 1 1 5DEC06F6
P 6800 4200
AR Path="/5DEC06F6" Ref="C?"  Part="1" 
AR Path="/5DEB3B40/5DEC06F6" Ref="C?"  Part="1" 
AR Path="/5DEFBDA6/5DEC06F6" Ref="C13"  Part="1" 
F 0 "C13" H 6892 4246 50  0000 L CNN
F 1 "15p" H 6892 4155 50  0000 L CNN
F 2 "Capacitor_SMD:C_0402_1005Metric" H 6800 4200 50  0001 C CNN
F 3 "~" H 6800 4200 50  0001 C CNN
	1    6800 4200
	1    0    0    -1  
$EndComp
$Comp
L power:GND #PWR?
U 1 1 5DEC0700
P 7200 4300
AR Path="/5DEC0700" Ref="#PWR?"  Part="1" 
AR Path="/5DEB3B40/5DEC0700" Ref="#PWR?"  Part="1" 
AR Path="/5DEFBDA6/5DEC0700" Ref="#PWR0124"  Part="1" 
F 0 "#PWR0124" H 7200 4050 50  0001 C CNN
F 1 "GND" H 7205 4127 50  0000 C CNN
F 2 "" H 7200 4300 50  0001 C CNN
F 3 "" H 7200 4300 50  0001 C CNN
	1    7200 4300
	1    0    0    -1  
$EndComp
Wire Wire Line
	6700 4000 6800 4000
Wire Wire Line
	7200 4000 7200 4300
Wire Wire Line
	6800 4100 6800 4000
Connection ~ 6800 4000
$Comp
L Switch:SW_Push SW?
U 1 1 5DEC1A72
P 6000 5000
AR Path="/5DEC1A72" Ref="SW?"  Part="1" 
AR Path="/5DEB3B40/5DEC1A72" Ref="SW?"  Part="1" 
AR Path="/5DEFBDA6/5DEC1A72" Ref="SW6"  Part="1" 
F 0 "SW6" H 6000 5285 50  0000 C CNN
F 1 "VOL-" H 6000 5194 50  0000 C CNN
F 2 "Button_Switch_SMD:SW_Push_SPST_NO_Alps_SKRK" H 6000 5200 50  0001 C CNN
F 3 "~" H 6000 5200 50  0001 C CNN
	1    6000 5000
	1    0    0    -1  
$EndComp
$Comp
L power:GND #PWR?
U 1 1 5DEC1A7C
P 5800 5300
AR Path="/5DEC1A7C" Ref="#PWR?"  Part="1" 
AR Path="/5DEB3B40/5DEC1A7C" Ref="#PWR?"  Part="1" 
AR Path="/5DEFBDA6/5DEC1A7C" Ref="#PWR0125"  Part="1" 
F 0 "#PWR0125" H 5800 5050 50  0001 C CNN
F 1 "GND" H 5805 5127 50  0000 C CNN
F 2 "" H 5800 5300 50  0001 C CNN
F 3 "" H 5800 5300 50  0001 C CNN
	1    5800 5300
	1    0    0    -1  
$EndComp
$Comp
L Device:C_Small C?
U 1 1 5DEC1A86
P 5800 5200
AR Path="/5DEC1A86" Ref="C?"  Part="1" 
AR Path="/5DEB3B40/5DEC1A86" Ref="C?"  Part="1" 
AR Path="/5DEFBDA6/5DEC1A86" Ref="C12"  Part="1" 
F 0 "C12" H 5892 5246 50  0000 L CNN
F 1 "15p" H 5892 5155 50  0000 L CNN
F 2 "Capacitor_SMD:C_0402_1005Metric" H 5800 5200 50  0001 C CNN
F 3 "~" H 5800 5200 50  0001 C CNN
	1    5800 5200
	1    0    0    -1  
$EndComp
$Comp
L power:GND #PWR?
U 1 1 5DEC1A90
P 6200 5300
AR Path="/5DEC1A90" Ref="#PWR?"  Part="1" 
AR Path="/5DEB3B40/5DEC1A90" Ref="#PWR?"  Part="1" 
AR Path="/5DEFBDA6/5DEC1A90" Ref="#PWR0126"  Part="1" 
F 0 "#PWR0126" H 6200 5050 50  0001 C CNN
F 1 "GND" H 6205 5127 50  0000 C CNN
F 2 "" H 6200 5300 50  0001 C CNN
F 3 "" H 6200 5300 50  0001 C CNN
	1    6200 5300
	1    0    0    -1  
$EndComp
Wire Wire Line
	5700 5000 5800 5000
Wire Wire Line
	6200 5000 6200 5300
Wire Wire Line
	5800 5100 5800 5000
Connection ~ 5800 5000
$Comp
L Switch:SW_Push SW?
U 1 1 5DEC4371
P 6000 3000
AR Path="/5DEC4371" Ref="SW?"  Part="1" 
AR Path="/5DEB3B40/5DEC4371" Ref="SW?"  Part="1" 
AR Path="/5DEFBDA6/5DEC4371" Ref="SW4"  Part="1" 
F 0 "SW4" H 6000 3285 50  0000 C CNN
F 1 "VOL+" H 6000 3194 50  0000 C CNN
F 2 "Button_Switch_SMD:SW_Push_SPST_NO_Alps_SKRK" H 6000 3200 50  0001 C CNN
F 3 "~" H 6000 3200 50  0001 C CNN
	1    6000 3000
	1    0    0    -1  
$EndComp
$Comp
L power:GND #PWR?
U 1 1 5DEC437B
P 5800 3300
AR Path="/5DEC437B" Ref="#PWR?"  Part="1" 
AR Path="/5DEB3B40/5DEC437B" Ref="#PWR?"  Part="1" 
AR Path="/5DEFBDA6/5DEC437B" Ref="#PWR0135"  Part="1" 
F 0 "#PWR0135" H 5800 3050 50  0001 C CNN
F 1 "GND" H 5805 3127 50  0000 C CNN
F 2 "" H 5800 3300 50  0001 C CNN
F 3 "" H 5800 3300 50  0001 C CNN
	1    5800 3300
	1    0    0    -1  
$EndComp
$Comp
L Device:C_Small C?
U 1 1 5DEC4385
P 5800 3200
AR Path="/5DEC4385" Ref="C?"  Part="1" 
AR Path="/5DEB3B40/5DEC4385" Ref="C?"  Part="1" 
AR Path="/5DEFBDA6/5DEC4385" Ref="C10"  Part="1" 
F 0 "C10" H 5892 3246 50  0000 L CNN
F 1 "15p" H 5892 3155 50  0000 L CNN
F 2 "Capacitor_SMD:C_0402_1005Metric" H 5800 3200 50  0001 C CNN
F 3 "~" H 5800 3200 50  0001 C CNN
	1    5800 3200
	1    0    0    -1  
$EndComp
$Comp
L power:GND #PWR?
U 1 1 5DEC438F
P 6200 3300
AR Path="/5DEC438F" Ref="#PWR?"  Part="1" 
AR Path="/5DEB3B40/5DEC438F" Ref="#PWR?"  Part="1" 
AR Path="/5DEFBDA6/5DEC438F" Ref="#PWR0136"  Part="1" 
F 0 "#PWR0136" H 6200 3050 50  0001 C CNN
F 1 "GND" H 6205 3127 50  0000 C CNN
F 2 "" H 6200 3300 50  0001 C CNN
F 3 "" H 6200 3300 50  0001 C CNN
	1    6200 3300
	1    0    0    -1  
$EndComp
Wire Wire Line
	5700 3000 5800 3000
Wire Wire Line
	6200 3000 6200 3300
Wire Wire Line
	5800 3100 5800 3000
Connection ~ 5800 3000
Text HLabel 4700 4000 0    50   Output ~ 0
REV
Text HLabel 5700 4000 0    50   Output ~ 0
PLAY
Text HLabel 5700 3000 0    50   Output ~ 0
VOL+
Text HLabel 5700 5000 0    50   Output ~ 0
VOL-
Text HLabel 6700 4000 0    50   Output ~ 0
FWD
Text GLabel 3900 5000 2    50   Input ~ 0
SYS_PWR
$Comp
L Device:R_Small R?
U 1 1 5DF40296
P 3800 5000
AR Path="/5DF40296" Ref="R?"  Part="1" 
AR Path="/5DEFBDA6/5DF40296" Ref="R6"  Part="1" 
F 0 "R6" V 3604 5000 50  0000 C CNN
F 1 "0" V 3695 5000 50  0000 C CNN
F 2 "Resistor_SMD:R_0402_1005Metric" H 3800 5000 50  0001 C CNN
F 3 "~" H 3800 5000 50  0001 C CNN
	1    3800 5000
	0    1    1    0   
$EndComp
$Comp
L Device:C_Small C?
U 1 1 5DF4029C
P 3300 5200
AR Path="/5DF4029C" Ref="C?"  Part="1" 
AR Path="/5DEFBDA6/5DF4029C" Ref="C5"  Part="1" 
F 0 "C5" H 3392 5246 50  0000 L CNN
F 1 "15p" H 3392 5155 50  0000 L CNN
F 2 "Capacitor_SMD:C_0402_1005Metric" H 3300 5200 50  0001 C CNN
F 3 "~" H 3300 5200 50  0001 C CNN
	1    3300 5200
	1    0    0    -1  
$EndComp
$Comp
L power:GND #PWR?
U 1 1 5DF402A2
P 3300 5300
AR Path="/5DF402A2" Ref="#PWR?"  Part="1" 
AR Path="/5DEFBDA6/5DF402A2" Ref="#PWR02"  Part="1" 
F 0 "#PWR02" H 3300 5050 50  0001 C CNN
F 1 "GND" H 3305 5127 50  0000 C CNN
F 2 "" H 3300 5300 50  0001 C CNN
F 3 "" H 3300 5300 50  0001 C CNN
	1    3300 5300
	1    0    0    -1  
$EndComp
Text HLabel 3200 5000 0    50   Output ~ 0
MFB
$Comp
L Switch:SW_Push SW?
U 1 1 5DF4EE1E
P 3500 3000
AR Path="/5DF4EE1E" Ref="SW?"  Part="1" 
AR Path="/5DEFBDA6/5DF4EE1E" Ref="SW1"  Part="1" 
F 0 "SW1" H 3500 3285 50  0000 C CNN
F 1 "RST" H 3500 3194 50  0000 C CNN
F 2 "Button_Switch_SMD:SW_Push_SPST_NO_Alps_SKRK" H 3500 3200 50  0001 C CNN
F 3 "~" H 3500 3200 50  0001 C CNN
	1    3500 3000
	1    0    0    -1  
$EndComp
$Comp
L Device:C_Small C?
U 1 1 5DF4EE24
P 3300 3200
AR Path="/5DF4EE24" Ref="C?"  Part="1" 
AR Path="/5DEFBDA6/5DF4EE24" Ref="C4"  Part="1" 
F 0 "C4" H 3392 3246 50  0000 L CNN
F 1 "15p" H 3392 3155 50  0000 L CNN
F 2 "Capacitor_SMD:C_0402_1005Metric" H 3300 3200 50  0001 C CNN
F 3 "~" H 3300 3200 50  0001 C CNN
	1    3300 3200
	1    0    0    -1  
$EndComp
$Comp
L power:GND #PWR?
U 1 1 5DF4EE2D
P 3300 3300
AR Path="/5DF4EE2D" Ref="#PWR?"  Part="1" 
AR Path="/5DEFBDA6/5DF4EE2D" Ref="#PWR01"  Part="1" 
F 0 "#PWR01" H 3300 3050 50  0001 C CNN
F 1 "GND" H 3305 3127 50  0000 C CNN
F 2 "" H 3300 3300 50  0001 C CNN
F 3 "" H 3300 3300 50  0001 C CNN
	1    3300 3300
	1    0    0    -1  
$EndComp
$Comp
L power:GND #PWR?
U 1 1 5DF4EE33
P 3700 3300
AR Path="/5DF4EE33" Ref="#PWR?"  Part="1" 
AR Path="/5DEFBDA6/5DF4EE33" Ref="#PWR03"  Part="1" 
F 0 "#PWR03" H 3700 3050 50  0001 C CNN
F 1 "GND" H 3705 3127 50  0000 C CNN
F 2 "" H 3700 3300 50  0001 C CNN
F 3 "" H 3700 3300 50  0001 C CNN
	1    3700 3300
	1    0    0    -1  
$EndComp
Wire Wire Line
	3700 3300 3700 3000
$Comp
L Switch:SW_Push SW?
U 1 1 5DF4028F
P 3500 5000
AR Path="/5DF4028F" Ref="SW?"  Part="1" 
AR Path="/5DEFBDA6/5DF4028F" Ref="SW2"  Part="1" 
F 0 "SW2" H 3500 5285 50  0000 C CNN
F 1 "MFB" H 3500 5194 50  0000 C CNN
F 2 "Button_Switch_SMD:SW_Push_SPST_NO_Alps_SKRK" H 3500 5200 50  0001 C CNN
F 3 "~" H 3500 5200 50  0001 C CNN
	1    3500 5000
	1    0    0    -1  
$EndComp
Wire Wire Line
	3200 5000 3300 5000
Wire Wire Line
	3300 5000 3300 5100
Connection ~ 3300 5000
Text HLabel 3200 3000 0    50   Output ~ 0
~RST
Wire Wire Line
	3200 3000 3300 3000
Wire Wire Line
	3300 3000 3300 3100
Connection ~ 3300 3000
$EndSCHEMATC
