EESchema Schematic File Version 4
EELAYER 30 0
EELAYER END
$Descr A4 11693 8268
encoding utf-8
Sheet 2 2
Title ""
Date ""
Rev ""
Comp ""
Comment1 ""
Comment2 ""
Comment3 ""
Comment4 ""
$EndDescr
$Comp
L power:VBUS #PWR?
U 1 1 5DF0C45A
P 2700 2550
AR Path="/5D254E55/5DF0C45A" Ref="#PWR?"  Part="1" 
AR Path="/5DF0C45A" Ref="#PWR?"  Part="1" 
AR Path="/5C98F9BA/5DF0C45A" Ref="#PWR0113"  Part="1" 
F 0 "#PWR0113" H 2700 2400 50  0001 C CNN
F 1 "VBUS" H 2715 2723 50  0000 C CNN
F 2 "" H 2700 2550 50  0001 C CNN
F 3 "" H 2700 2550 50  0001 C CNN
	1    2700 2550
	1    0    0    -1  
$EndComp
$Comp
L Device:D_Schottky_Small D?
U 1 1 5DF0C460
P 2900 3150
AR Path="/5D254E55/5DF0C460" Ref="D?"  Part="1" 
AR Path="/5DF0C460" Ref="D?"  Part="1" 
AR Path="/5C98F9BA/5DF0C460" Ref="D1"  Part="1" 
F 0 "D1" H 2900 2945 50  0000 C CNN
F 1 "MBR120" H 2900 3036 50  0000 C CNN
F 2 "Diode_SMD:D_SOD-123F" V 2900 3150 50  0001 C CNN
F 3 "~" V 2900 3150 50  0001 C CNN
	1    2900 3150
	-1   0    0    1   
$EndComp
$Comp
L Device:Q_PMOS_GSD Q?
U 1 1 5DF0C466
P 3000 2750
AR Path="/5D254E55/5DF0C466" Ref="Q?"  Part="1" 
AR Path="/5DF0C466" Ref="Q?"  Part="1" 
AR Path="/5C98F9BA/5DF0C466" Ref="Q1"  Part="1" 
F 0 "Q1" H 3206 2796 50  0000 L CNN
F 1 "DMG2305" H 3206 2705 50  0000 L CNN
F 2 "Package_TO_SOT_SMD:SOT-23" H 3200 2850 50  0001 C CNN
F 3 "~" H 3000 2750 50  0001 C CNN
	1    3000 2750
	1    0    0    -1  
$EndComp
Wire Wire Line
	2800 2750 2700 2750
Wire Wire Line
	2700 2750 2700 2550
Wire Wire Line
	3000 3150 3100 3150
Wire Wire Line
	2800 3150 2700 3150
Wire Wire Line
	2700 3150 2700 2750
Connection ~ 2700 2750
$Comp
L Device:C_Small C?
U 1 1 5DF0C472
P 3100 3350
AR Path="/5D254E55/5DF0C472" Ref="C?"  Part="1" 
AR Path="/5DF0C472" Ref="C?"  Part="1" 
AR Path="/5C98F9BA/5DF0C472" Ref="C2"  Part="1" 
F 0 "C2" H 3192 3396 50  0000 L CNN
F 1 "10u" H 3192 3305 50  0000 L CNN
F 2 "Capacitor_SMD:C_0603_1608Metric" H 3100 3350 50  0001 C CNN
F 3 "~" H 3100 3350 50  0001 C CNN
	1    3100 3350
	1    0    0    -1  
$EndComp
$Comp
L power:GND #PWR?
U 1 1 5DF0C478
P 3100 3550
AR Path="/5D254E55/5DF0C478" Ref="#PWR?"  Part="1" 
AR Path="/5DF0C478" Ref="#PWR?"  Part="1" 
AR Path="/5C98F9BA/5DF0C478" Ref="#PWR0114"  Part="1" 
F 0 "#PWR0114" H 3100 3300 50  0001 C CNN
F 1 "GND" H 3105 3377 50  0000 C CNN
F 2 "" H 3100 3550 50  0001 C CNN
F 3 "" H 3100 3550 50  0001 C CNN
	1    3100 3550
	1    0    0    -1  
$EndComp
Wire Wire Line
	3100 3550 3100 3450
Wire Wire Line
	3100 3250 3100 3150
Connection ~ 3100 3150
$Comp
L Device:R_Small R?
U 1 1 5DF0C487
P 2700 3350
AR Path="/5D254E55/5DF0C487" Ref="R?"  Part="1" 
AR Path="/5DF0C487" Ref="R?"  Part="1" 
AR Path="/5C98F9BA/5DF0C487" Ref="R2"  Part="1" 
F 0 "R2" H 2759 3396 50  0000 L CNN
F 1 "100k" H 2759 3305 50  0000 L CNN
F 2 "Resistor_SMD:R_0402_1005Metric" H 2700 3350 50  0001 C CNN
F 3 "~" H 2700 3350 50  0001 C CNN
	1    2700 3350
	1    0    0    -1  
$EndComp
Wire Wire Line
	2700 3150 2700 3250
Connection ~ 2700 3150
$Comp
L power:GND #PWR?
U 1 1 5DF0C48F
P 2700 3550
AR Path="/5D254E55/5DF0C48F" Ref="#PWR?"  Part="1" 
AR Path="/5DF0C48F" Ref="#PWR?"  Part="1" 
AR Path="/5C98F9BA/5DF0C48F" Ref="#PWR0116"  Part="1" 
F 0 "#PWR0116" H 2700 3300 50  0001 C CNN
F 1 "GND" H 2705 3377 50  0000 C CNN
F 2 "" H 2700 3550 50  0001 C CNN
F 3 "" H 2700 3550 50  0001 C CNN
	1    2700 3550
	1    0    0    -1  
$EndComp
Wire Wire Line
	2700 3550 2700 3450
Wire Wire Line
	3100 2950 3100 3050
Wire Wire Line
	3200 3050 3100 3050
Connection ~ 3100 3050
Wire Wire Line
	3100 3050 3100 3150
$Comp
L power:VDD #PWR?
U 1 1 5DF0C49B
P 3200 3050
AR Path="/5D254E55/5DF0C49B" Ref="#PWR?"  Part="1" 
AR Path="/5DF0C49B" Ref="#PWR?"  Part="1" 
AR Path="/5C98F9BA/5DF0C49B" Ref="#PWR0117"  Part="1" 
F 0 "#PWR0117" H 3200 2900 50  0001 C CNN
F 1 "VDD" V 3217 3178 50  0000 L CNN
F 2 "" H 3200 3050 50  0001 C CNN
F 3 "" H 3200 3050 50  0001 C CNN
	1    3200 3050
	0    1    1    0   
$EndComp
$Comp
L 0xdec:VBAT #PWR0115
U 1 1 5F22767E
P 3100 2550
F 0 "#PWR0115" H 3100 2400 50  0001 C CNN
F 1 "VBAT" H 3115 2723 50  0000 C CNN
F 2 "" H 3100 2550 50  0001 C CNN
F 3 "" H 3100 2550 50  0001 C CNN
	1    3100 2550
	1    0    0    -1  
$EndComp
Text Label 5900 4950 0    50   ~ 0
EN
Wire Wire Line
	6100 4950 5900 4950
$Comp
L power:VDD #PWR?
U 1 1 5DEF6087
P 6100 4750
AR Path="/5D254E55/5DEF6087" Ref="#PWR?"  Part="1" 
AR Path="/5DEF6087" Ref="#PWR?"  Part="1" 
AR Path="/5C98F9BA/5DEF6087" Ref="#PWR0112"  Part="1" 
F 0 "#PWR0112" H 6100 4600 50  0001 C CNN
F 1 "VDD" H 6117 4923 50  0000 C CNN
F 2 "" H 6100 4750 50  0001 C CNN
F 3 "" H 6100 4750 50  0001 C CNN
	1    6100 4750
	1    0    0    -1  
$EndComp
$Comp
L Regulator_Linear:AP2112K-3.3 U?
U 1 1 5DEF6081
P 6700 4950
AR Path="/5D254E55/5DEF6081" Ref="U?"  Part="1" 
AR Path="/5DEF6081" Ref="U?"  Part="1" 
AR Path="/5C98F9BA/5DEF6081" Ref="U2"  Part="1" 
F 0 "U2" H 6700 5292 50  0000 C CNN
F 1 "AP2112K-3.3" H 6700 5201 50  0000 C CNN
F 2 "Package_TO_SOT_SMD:SOT-23-5" H 6700 5275 50  0001 C CNN
F 3 "https://www.diodes.com/assets/Datasheets/AP2112.pdf" H 6700 5050 50  0001 C CNN
	1    6700 4950
	1    0    0    -1  
$EndComp
$Comp
L power:+3V3 #PWR?
U 1 1 5DEF607B
P 7100 4750
AR Path="/5D254E55/5DEF607B" Ref="#PWR?"  Part="1" 
AR Path="/5DEF607B" Ref="#PWR?"  Part="1" 
AR Path="/5C98F9BA/5DEF607B" Ref="#PWR0111"  Part="1" 
F 0 "#PWR0111" H 7100 4600 50  0001 C CNN
F 1 "+3V3" H 7115 4923 50  0000 C CNN
F 2 "" H 7100 4750 50  0001 C CNN
F 3 "" H 7100 4750 50  0001 C CNN
	1    7100 4750
	1    0    0    -1  
$EndComp
$Comp
L Device:R_Small R?
U 1 1 5DEF6075
P 6100 4850
AR Path="/5D254E55/5DEF6075" Ref="R?"  Part="1" 
AR Path="/5DEF6075" Ref="R?"  Part="1" 
AR Path="/5C98F9BA/5DEF6075" Ref="R3"  Part="1" 
F 0 "R3" H 6159 4896 50  0000 L CNN
F 1 "100k" H 6159 4805 50  0000 L CNN
F 2 "Resistor_SMD:R_0402_1005Metric" H 6100 4850 50  0001 C CNN
F 3 "~" H 6100 4850 50  0001 C CNN
	1    6100 4850
	1    0    0    -1  
$EndComp
Connection ~ 6100 4950
Wire Wire Line
	6400 4950 6100 4950
$Comp
L power:VDD #PWR?
U 1 1 5DEF606E
P 6300 4750
AR Path="/5D254E55/5DEF606E" Ref="#PWR?"  Part="1" 
AR Path="/5DEF606E" Ref="#PWR?"  Part="1" 
AR Path="/5C98F9BA/5DEF606E" Ref="#PWR0110"  Part="1" 
F 0 "#PWR0110" H 6300 4600 50  0001 C CNN
F 1 "VDD" H 6317 4923 50  0000 C CNN
F 2 "" H 6300 4750 50  0001 C CNN
F 3 "" H 6300 4750 50  0001 C CNN
	1    6300 4750
	1    0    0    -1  
$EndComp
Wire Wire Line
	6300 4850 6300 4750
Wire Wire Line
	6400 4850 6300 4850
$Comp
L power:GND #PWR?
U 1 1 5DEF6066
P 6700 5250
AR Path="/5D254E55/5DEF6066" Ref="#PWR?"  Part="1" 
AR Path="/5DEF6066" Ref="#PWR?"  Part="1" 
AR Path="/5C98F9BA/5DEF6066" Ref="#PWR0109"  Part="1" 
F 0 "#PWR0109" H 6700 5000 50  0001 C CNN
F 1 "GND" H 6705 5077 50  0000 C CNN
F 2 "" H 6700 5250 50  0001 C CNN
F 3 "" H 6700 5250 50  0001 C CNN
	1    6700 5250
	1    0    0    -1  
$EndComp
$Comp
L Device:C_Small C?
U 1 1 5DEF6060
P 7100 5050
AR Path="/5D254E55/5DEF6060" Ref="C?"  Part="1" 
AR Path="/5DEF6060" Ref="C?"  Part="1" 
AR Path="/5C98F9BA/5DEF6060" Ref="C3"  Part="1" 
F 0 "C3" H 7192 5096 50  0000 L CNN
F 1 "10u" H 7192 5005 50  0000 L CNN
F 2 "Capacitor_SMD:C_0603_1608Metric" H 7100 5050 50  0001 C CNN
F 3 "~" H 7100 5050 50  0001 C CNN
	1    7100 5050
	1    0    0    -1  
$EndComp
Wire Wire Line
	7100 5250 7100 5150
$Comp
L power:GND #PWR?
U 1 1 5DEF6056
P 7100 5250
AR Path="/5D254E55/5DEF6056" Ref="#PWR?"  Part="1" 
AR Path="/5DEF6056" Ref="#PWR?"  Part="1" 
AR Path="/5C98F9BA/5DEF6056" Ref="#PWR0108"  Part="1" 
F 0 "#PWR0108" H 7100 5000 50  0001 C CNN
F 1 "GND" H 7105 5077 50  0000 C CNN
F 2 "" H 7100 5250 50  0001 C CNN
F 3 "" H 7100 5250 50  0001 C CNN
	1    7100 5250
	1    0    0    -1  
$EndComp
Wire Wire Line
	7100 4850 7100 4750
Wire Wire Line
	7100 4950 7100 4850
Connection ~ 7100 4850
Wire Wire Line
	7000 4850 7100 4850
$Comp
L Battery_Management:BQ27441-G1 U4
U 1 1 5DEC7F61
P 7500 3000
F 0 "U4" H 7500 3667 50  0000 C CNN
F 1 "BQ27441-G1" H 7500 3576 50  0000 C CNN
F 2 "Package_SON:Texas_S-PDSO-N12" H 7750 2450 50  0001 L CNN
F 3 "http://www.ti.com/lit/ds/symlink/bq27441-g1.pdf" H 7700 3200 50  0001 C CNN
	1    7500 3000
	1    0    0    -1  
$EndComp
$Comp
L Battery_Management:BQ25895RTW U3
U 1 1 5DEBAD02
P 6000 3000
F 0 "U3" H 6000 3967 50  0000 C CNN
F 1 "BQ25895RTW" H 6000 3876 50  0000 C CNN
F 2 "Package_DFN_QFN:Texas_S-PWQFN-N24_EP2.7x2.7mm_ThermalVias" H 5900 4000 50  0001 C CNN
F 3 "http://www.ti.com/lit/ds/symlink/bq25895.pdf" H 5800 3800 50  0001 C CNN
	1    6000 3000
	1    0    0    -1  
$EndComp
$EndSCHEMATC
